# Blender v2.90.1 OBJ File: ''
# www.blender.org
mtllib link4.mtl
o Link4
v -0.000642 -0.028422 -0.006161
v 0.005914 -0.027589 -0.011568
v -0.012089 -0.027589 0.013317
v -0.010060 -0.028586 0.007411
v 0.067958 0.054802 0.070258
v 0.056730 0.055316 0.075987
v 0.061818 0.013808 0.081580
v 0.037939 0.032351 0.083070
v 0.025593 0.009914 0.083753
v 0.030515 -0.027589 0.086946
v 0.015804 0.054907 0.070968
v 0.018689 0.032178 0.077814
v 0.026527 0.054911 0.076291
v 0.068190 -0.027589 -0.015018
v 0.072130 -0.010618 -0.012139
v 0.079996 -0.027588 -0.006151
v 0.023249 -0.002188 -0.027702
v 0.016514 0.002811 -0.031439
v 0.027160 0.011023 -0.023048
v 0.095575 -0.003341 0.032998
v 0.091093 0.030479 0.041505
v 0.094379 0.004017 0.041303
v 0.016005 0.018902 -0.021321
v 0.027761 0.022803 -0.018379
v 0.062435 0.020012 -0.014504
v 0.075258 0.018994 -0.006561
v 0.014102 -0.007185 -0.040304
v 0.032195 -0.003840 -0.022872
v 0.044953 0.000073 -0.020876
v 0.031031 -0.027588 -0.023812
v 0.059902 -0.010678 0.084391
v 0.049979 0.003587 0.086021
v 0.059439 -0.027589 0.084942
v 0.011055 -0.010740 -0.088001
v 0.006709 -0.001107 -0.056412
v 0.009123 -0.006622 -0.063288
v -0.019747 0.020409 -0.049611
v -0.037771 0.025504 -0.058847
v -0.024582 0.020432 -0.018411
v 0.070673 0.041371 -0.005735
v 0.095905 -0.027587 0.040062
v 0.093295 -0.027589 0.051092
v 0.041339 -0.027588 0.088001
v 0.015277 -0.027588 -0.047311
v 0.013571 -0.012720 -0.046594
v 0.079947 0.000205 -0.004748
v 0.090665 0.010977 0.052470
v 0.089460 0.037687 0.022438
v 0.086912 0.054943 0.037051
v 0.007511 0.000008 -0.048233
v 0.034958 0.023221 -0.018446
v 0.026827 0.039247 0.079783
v 0.067884 0.054803 -0.004311
v 0.077785 0.037902 -0.000091
v -0.000735 0.008122 -0.065405
v 0.002331 0.009803 -0.039980
v 0.047696 0.030241 0.083109
v 0.076084 0.057249 0.004271
v 0.083265 0.059439 0.047159
v 0.011629 0.008881 -0.031417
v 0.007303 0.023009 -0.016683
v 0.085299 0.003680 0.002127
v 0.020137 -0.027589 -0.033455
v 0.087716 -0.007131 0.061552
v -0.011692 0.018879 -0.029875
v -0.007573 0.021496 -0.016720
v -0.003596 0.018547 -0.026266
v 0.046119 0.055432 0.078377
v 0.038252 -0.004868 0.087247
v 0.085271 0.018435 0.061156
v 0.010734 0.002146 -0.038260
v -0.005738 0.012797 -0.053959
v 0.093295 -0.027589 0.014906
v 0.086192 -0.027589 0.064844
v 0.074034 0.013650 0.074383
v 0.058459 0.048307 -0.010992
v 0.080944 0.054820 0.010039
v 0.089539 -0.003202 0.008130
v 0.085972 0.023088 0.007159
v 0.053624 0.023587 -0.017009
v -0.003676 0.013891 -0.039451
v 0.075435 0.054839 0.063540
v 0.074830 0.063842 0.058269
v 0.066460 0.065555 0.065151
v 0.067766 0.073086 0.052761
v 0.057105 0.068941 0.067526
v 0.078993 0.061842 0.012021
v 0.086278 0.054787 0.024185
v 0.072896 0.071578 0.017729
v 0.006054 0.024778 0.070295
v 0.019076 -0.027589 0.083301
v 0.096171 -0.027589 0.028606
v 0.073786 0.073283 0.028844
v 0.083494 0.063421 0.030762
v 0.046216 0.070568 0.068929
v 0.057340 0.074681 0.058903
v 0.047503 0.079328 0.052663
v 0.013557 -0.022305 -0.088001
v 0.007188 -0.005005 0.075254
v 0.013584 -0.027589 -0.066272
v -0.063697 -0.022804 0.015671
v -0.071859 -0.014031 0.009885
v -0.071622 -0.032984 0.011768
v 0.080658 0.066970 0.038559
v -0.038037 -0.001321 0.014138
v -0.054954 0.003124 0.009632
v -0.051083 -0.010332 0.016770
v 0.001325 -0.027588 0.070743
v -0.000932 -0.005003 0.067138
v -0.006416 -0.027589 0.060306
v -0.055184 -0.028457 0.018646
v 0.060866 -0.003491 -0.017615
v 0.073400 0.073125 0.040552
v -0.035730 -0.029034 0.020512
v -0.031385 -0.018270 0.020426
v -0.047851 -0.033006 0.019732
v 0.053195 0.070112 -0.001806
v 0.042881 0.061939 -0.010029
v 0.042075 0.071856 -0.001696
v -0.050448 -0.041960 0.017952
v -0.063192 -0.047135 0.012773
v 0.036793 0.072669 0.066296
v -0.060160 -0.004379 0.012063
v -0.052097 -0.058592 0.010809
v -0.030578 -0.053681 0.013546
v -0.041425 -0.046434 0.017449
v 0.055031 0.059748 -0.008933
v 0.043272 0.055433 -0.012593
v -0.035696 0.007734 0.009050
v 0.077927 0.067230 0.047873
v 0.034723 0.063100 0.074878
v -0.030304 -0.041344 0.017814
v 0.061857 0.066970 -0.000998
v 0.057340 0.074681 0.007097
v 0.077820 -0.027589 0.074180
v -0.077550 -0.042200 0.005099
v -0.089195 -0.054914 -0.088001
v -0.087508 -0.053110 -0.048426
v -0.094159 -0.040468 -0.069118
v 0.070117 0.069794 0.009581
v 0.065935 0.076438 0.021274
v -0.083333 -0.059612 -0.048244
v -0.080708 -0.055859 -0.019938
v -0.085379 -0.000212 -0.045033
v -0.075746 0.002315 -0.008985
v -0.082178 0.006193 -0.056121
v -0.079738 -0.004143 -0.006449
v -0.088441 -0.002500 -0.059559
v -0.083871 0.006592 -0.088000
v -0.082349 -0.064564 -0.088001
v 0.010639 -0.027588 0.078647
v -0.088057 -0.007469 -0.037183
v -0.075672 -0.057600 -0.006463
v -0.077181 -0.063787 -0.033742
v -0.089898 -0.002562 -0.088001
v 0.009655 0.042027 -0.006569
v 0.020337 0.059363 -0.006011
v 0.029203 0.055000 -0.011097
v 0.028993 0.062913 -0.007684
v 0.022865 0.067989 -0.001167
v 0.092541 0.010645 0.019076
v 0.031305 0.075061 0.004934
v -0.065798 -0.064047 -0.001768
v -0.091893 -0.014773 -0.046544
v -0.072619 -0.072051 -0.063470
v 0.022723 0.073079 0.005750
v -0.073597 -0.072528 -0.088001
v 0.027049 0.078892 0.049421
v 0.018209 0.071770 0.059007
v -0.069385 -0.068681 -0.025982
v 0.033658 0.079132 0.013287
v 0.036035 0.078595 0.054863
v 0.014935 0.076749 0.036415
v 0.014935 0.075298 0.045871
v -0.094228 -0.013573 -0.088001
v 0.028534 0.081324 0.027423
v 0.043303 0.082876 0.036035
v 0.013797 0.072814 0.013919
v 0.020305 0.077551 0.019585
v 0.007019 0.069202 0.048562
v -0.037127 0.016974 -0.005114
v -0.041631 0.022130 -0.030594
v -0.050098 0.016644 -0.007175
v -0.085770 -0.017534 -0.008125
v 0.073419 0.032162 0.071615
v 0.037548 0.082215 0.024288
v -0.053023 0.023190 -0.048010
v -0.060584 -0.069635 -0.008176
v -0.049141 0.026349 -0.088001
v -0.030250 0.025839 -0.088001
v -0.092236 -0.024166 -0.037184
v -0.059250 -0.075396 -0.033318
v 0.050458 0.081403 0.043162
v -0.065767 -0.076535 -0.067587
v -0.095137 -0.025510 -0.063120
v 0.051836 0.081623 0.025827
v 0.063649 0.078666 0.031586
v 0.060523 0.077398 0.049453
v -0.086561 -0.035700 -0.008921
v -0.058995 0.019422 -0.033950
v 0.008058 0.054894 0.064404
v 0.056392 -0.027587 -0.019920
v -0.048645 -0.073087 -0.007174
v -0.096171 -0.027276 -0.088000
v 0.045952 0.078194 0.009974
v -0.061557 0.021980 -0.063470
v -0.063402 0.011764 -0.007261
v -0.050739 -0.077096 -0.028839
v -0.057802 -0.080530 -0.088001
v -0.066018 0.020994 -0.088001
v -0.066394 0.016532 -0.037373
v -0.051438 -0.081817 -0.074784
v -0.091106 -0.036512 -0.033333
v 0.094190 -0.010620 0.019136
v 0.017213 0.065151 0.066250
v 0.024136 0.063100 0.071750
v 0.003748 0.059643 0.056158
v -0.045674 -0.081676 -0.059775
v -0.040314 -0.073869 -0.007877
v -0.072187 0.015448 -0.056117
v -0.095228 -0.038267 -0.088001
v -0.073966 0.008984 -0.026347
v -0.046205 -0.082876 -0.088001
v -0.010391 -0.027589 0.051771
v -0.081369 -0.049627 -0.007160
v -0.081917 -0.044493 -0.002534
v -0.075938 0.014544 -0.088001
v -0.035850 -0.078342 -0.032534
v -0.037961 -0.082548 -0.071487
v 0.011462 -0.027589 -0.043771
v -0.053623 0.008768 0.005255
v -0.066354 0.003234 0.003684
v -0.076379 -0.004744 0.000685
v -0.018023 -0.027587 0.030587
v -0.021431 -0.027589 0.017528
v -0.026625 -0.027588 0.022722
v 0.080470 -0.000168 0.070238
v -0.072512 -0.054114 0.002962
v -0.065200 -0.056445 0.007054
v -0.080172 -0.016327 0.002962
v -0.057965 -0.064605 0.003684
v -0.008223 0.034181 0.048556
v -0.007434 0.011889 0.055246
v -0.002741 0.060835 0.040616
v -0.012464 0.043234 0.035776
v 0.001283 0.066024 0.020837
v -0.078449 -0.025397 0.006853
v 0.001075 0.055979 0.006060
v -0.018568 0.027366 0.008861
v -0.012603 0.045089 0.016775
v -0.045455 -0.067747 0.004075
v -0.023323 0.019791 0.003399
v -0.024772 0.015821 0.012978
v -0.011924 0.049018 0.028609
v -0.023169 0.013998 0.017903
v -0.016925 0.025644 0.032916
v -0.009248 0.032029 0.000340
v -0.034527 0.011881 0.005256
v -0.007059 0.024055 -0.010367
v -0.030561 0.015988 0.000483
v -0.015543 0.024496 -0.001644
v -0.030899 0.001875 0.014603
v -0.084012 -0.033439 -0.000976
v -0.001649 0.064154 0.034520
v 0.009459 0.065137 0.005795
v -0.025016 -0.007079 0.020534
v -0.061180 0.010632 -0.001768
v -0.007180 0.057151 0.024805
v -0.012260 0.000293 0.047633
v -0.009068 -0.049626 0.005539
v -0.010989 -0.044625 0.009412
v 0.003183 -0.041218 -0.009882
v -0.005040 -0.051626 -0.000829
v 0.079396 0.034611 0.065121
v -0.014545 0.020053 -0.088001
v -0.002101 -0.066825 -0.088001
v -0.013687 -0.075759 -0.088001
v 0.008887 -0.050951 -0.088001
v 0.012617 -0.039722 -0.088001
v -0.030250 -0.082016 -0.088001
v -0.001992 0.010553 -0.088001
v 0.007424 -0.052756 -0.070209
v -0.026601 -0.077505 -0.039193
v 0.003079 0.034359 -0.006533
v 0.007463 -0.043498 -0.035647
v -0.003097 -0.053501 -0.007785
v 0.008780 -0.046633 -0.054071
v -0.033604 -0.073230 -0.007799
v -0.024849 -0.080175 -0.072011
v -0.022317 -0.067584 -0.002119
v -0.015771 -0.075794 -0.063101
v -0.018927 -0.073369 -0.031980
v -0.014013 -0.064938 -0.007794
v -0.007419 -0.066670 -0.037318
v 0.015672 0.026236 -0.015378
v -0.007858 -0.069774 -0.054928
v -0.023784 0.023656 -0.072194
v 0.000950 -0.061578 -0.060037
v -0.000307 -0.059682 -0.040108
v -0.021871 -0.052656 0.011556
v -0.018286 -0.036439 0.015166
v -0.032024 -0.064173 0.007007
v -0.021462 -0.061689 0.005205
v -0.035697 -0.069575 0.001345
v 0.012487 0.042688 -0.024224
v 0.000778 0.042699 -0.018511
v 0.002371 0.042417 -0.023973
v 0.017750 0.042388 -0.027942
v 0.010538 0.037465 -0.025620
v -0.000194 0.038455 -0.019983
v 0.013548 0.043259 -0.021355
v 0.024772 0.042822 -0.024374
v 0.025844 0.044717 -0.021736
v 0.037352 0.042153 -0.021791
v 0.042125 0.060655 -0.014854
v 0.028562 0.059937 -0.015436
v 0.013426 0.044251 -0.020027
v 0.015233 0.059438 -0.012302
v 0.024651 0.066191 -0.008421
v 0.040487 0.072841 -0.003698
v 0.052260 0.072870 0.001125
v 0.034119 0.072833 -0.003050
v 0.051369 0.072824 -0.002326
v 0.062999 0.072833 0.003413
v 0.057168 0.061666 -0.010943
v 0.058584 0.055317 -0.012702
v 0.065718 0.054647 -0.009572
v 0.046968 0.053777 -0.016630
v 0.069280 0.062499 -0.004390
v 0.070714 0.056657 -0.005759
v 0.080645 0.046449 0.000690
v 0.078590 0.063517 0.005632
v 0.081522 0.059856 0.007318
v 0.084408 0.064342 0.017203
v 0.073413 0.072842 0.015234
v 0.076297 0.072849 0.021825
v 0.078008 0.072840 0.030554
v 0.077629 0.072844 0.038290
v 0.086838 0.065166 0.034628
v 0.089035 0.056974 0.042112
v 0.088952 0.059961 0.034126
v 0.083542 0.065702 0.049215
v 0.078906 0.065843 0.058073
v 0.086490 0.054511 0.052467
v 0.074132 0.072852 0.049397
v 0.066919 0.072851 0.059324
v 0.054226 0.072872 0.064160
v 0.037327 0.072835 0.069503
v 0.020985 0.072841 0.063489
v 0.052494 0.072836 0.067999
v 0.009134 0.072711 0.050904
v 0.007753 0.072871 0.033796
v 0.004747 0.072847 0.035373
v 0.005717 0.072853 0.024184
v 0.011785 0.072856 0.011207
v 0.007333 0.072842 0.046650
v -0.006337 0.060416 0.040746
v -0.000674 0.068127 0.031812
v 0.001572 0.061639 0.057540
v 0.010567 0.062581 0.067979
v 0.001459 0.055521 0.061093
v -0.006918 0.053302 0.047215
v -0.009750 0.037091 0.050733
v -0.013231 0.042135 0.040261
v -0.023543 0.042313 0.021974
v -0.016177 0.042917 0.033038
v -0.012865 0.052519 0.023723
v -0.017689 0.043205 0.017316
v -0.025421 0.037273 0.022081
v -0.018589 0.035626 0.024967
v -0.022655 0.036847 0.014786
v -0.026488 0.037459 0.012988
v -0.024367 0.042482 0.016134
v -0.017962 0.042723 0.004465
v -0.015480 0.042387 -0.007994
v -0.020858 0.042663 0.015995
v -0.021111 0.042317 0.002520
v -0.022239 0.037675 0.000238
v -0.012498 0.038522 -0.008700
v -0.013932 0.037834 -0.012866
v -0.019335 0.037719 0.003154
v -0.015365 0.038323 -0.003553
v -0.014153 0.042725 -0.003417
v -0.011196 0.043223 -0.001371
v -0.012510 0.038221 -0.002562
v -0.004403 0.039204 -0.011979
v -0.002272 0.035867 -0.004716
v -0.011519 0.035777 0.002929
v 0.011206 0.037570 -0.014702
v -0.016376 0.037245 0.004522
v -0.014741 0.043185 0.005700
v -0.019573 0.036152 0.015482
v -0.017588 0.035537 0.012912
v -0.021913 0.025868 0.012519
v -0.018123 0.026201 0.000678
v -0.006088 0.026337 -0.011544
v -0.005252 0.030199 -0.007132
v -0.015786 0.025394 -0.001681
v 0.001928 0.025394 -0.014200
v -0.019612 0.026871 0.022849
v -0.018210 0.029728 0.031706
v -0.012559 0.032685 0.041917
v -0.012082 0.035456 0.044200
v 0.000163 0.035435 0.063102
v 0.001945 0.036838 0.067771
v -0.005246 0.037139 0.058429
v 0.011300 0.036985 0.076209
v 0.025779 0.035120 0.080393
v 0.024319 0.036825 0.082784
v 0.032495 0.036839 0.084846
v 0.055865 0.035119 0.080732
v 0.053357 0.036816 0.084213
v 0.042221 0.036784 0.085588
v 0.061831 0.036876 0.081451
v 0.070582 0.034962 0.073800
v 0.083350 0.035074 0.059932
v 0.080708 0.036943 0.067936
v 0.087107 0.036730 0.058887
v 0.091554 0.036811 0.048735
v 0.091016 0.035107 0.037758
v 0.093102 0.037005 0.042427
v 0.093954 0.036810 0.033732
v 0.093724 0.036795 0.028139
v 0.087834 0.035088 0.014781
v 0.089342 0.036963 0.011413
v 0.084891 0.036828 0.003484
v 0.077717 0.035098 -0.001168
v 0.076035 0.036860 -0.006550
v 0.073430 0.034976 -0.006647
v 0.059599 0.035446 -0.014480
v 0.042165 0.032153 -0.017648
v 0.039292 0.031395 -0.018854
v 0.017613 0.025421 -0.017023
v 0.017232 0.026044 -0.017936
v 0.003139 0.026277 -0.015221
v 0.006105 0.029840 -0.012750
v 0.026732 0.035570 -0.016350
v 0.013577 0.035783 -0.012391
v 0.030248 0.036507 -0.019595
v 0.044455 0.035512 -0.018035
v 0.048214 0.037027 -0.020622
v 0.058225 0.036842 -0.017174
v 0.072409 0.036899 -0.009462
v 0.029729 0.036894 -0.025342
v 0.002229 0.039080 -0.017133
v 0.017357 0.037426 -0.029818
v 0.008674 0.037381 -0.029600
v -0.006433 0.037827 -0.020354
v -0.005482 0.038959 -0.014504
v -0.010026 0.042486 -0.014515
v -0.005740 0.042578 -0.013595
v -0.002754 0.044525 -0.009736
v 0.002579 0.058871 -0.003329
v 0.009392 0.059251 -0.008866
v 0.003025 0.043204 -0.016145
v 0.011919 0.038120 -0.022399
v 0.011346 0.065624 -0.001842
v 0.007667 0.067079 0.003997
v 0.017711 0.072847 0.004909
v 0.000294 0.067520 0.018462
v -0.005047 0.058976 0.007474
v -0.009012 0.059324 0.019412
v -0.013504 0.044242 0.006062
v -0.016305 0.044648 0.018631
v -0.008399 0.059949 0.032790
v 0.085239 0.054993 0.011123
v 0.088168 0.059399 0.023295
v 0.091254 0.046012 0.022741
v 0.080245 0.059868 0.060588
v 0.071743 0.065817 0.066430
v 0.076678 0.058980 0.065408
v 0.069397 0.057073 0.072567
v 0.074489 0.037040 0.073877
v 0.068718 0.036899 0.077923
v 0.062066 0.059757 0.075955
v 0.053535 0.056835 0.080019
v 0.052756 0.065258 0.076989
v 0.060478 0.065479 0.074125
v 0.046578 0.057232 0.081184
v 0.043663 0.064799 0.078592
v 0.036803 0.056535 0.081464
v 0.030655 0.064110 0.077712
v 0.019934 0.063342 0.074086
v 0.027491 0.045052 0.082243
v 0.022824 0.056510 0.077996
v 0.013642 0.056648 0.072970
v 0.008900 0.055386 0.069642
vn 0.2935 -0.9321 0.2124
vn 0.4385 -0.8493 0.2940
vn 0.4539 0.1734 0.8740
vn -0.0797 0.0742 0.9941
vn -0.4349 0.2087 0.8760
vn 0.6005 -0.0038 -0.7996
vn 0.5517 0.1271 -0.8243
vn 0.9918 0.1229 0.0340
vn 0.0348 0.5328 -0.8455
vn 0.5296 0.1026 -0.8420
vn 0.6551 0.4066 -0.6368
vn 0.1449 0.0320 -0.9889
vn 0.1990 0.0265 0.9796
vn 0.9189 0.3945 0.0061
vn 0.2535 0.9666 0.0386
vn 0.5294 0.1394 -0.8369
vn 0.9724 0.0379 0.2301
vn 0.1666 0.0165 0.9859
vn 0.9693 0.1215 -0.2139
vn 0.6574 0.0392 -0.7526
vn 0.9620 0.1176 0.2466
vn 0.9861 0.1645 -0.0223
vn 0.8190 0.5523 -0.1555
vn 0.4260 0.3145 -0.8483
vn 0.3673 0.1135 -0.9232
vn -0.1538 0.2122 0.9651
vn 0.2827 0.0875 0.9552
vn 0.9037 0.4190 -0.0877
vn 0.9936 0.0439 0.1043
vn -0.2002 0.1397 0.9698
vn 0.6236 0.0806 -0.7776
vn 0.9897 0.1393 -0.0321
vn 0.9573 0.0551 0.2840
vn 0.6692 0.2144 -0.7115
vn 0.7474 0.1235 -0.6528
vn 0.6608 0.1625 -0.7328
vn 0.8317 0.5384 -0.1359
vn 0.2915 0.1627 0.9426
vn 0.6737 0.2184 -0.7059
vn 0.9461 0.2071 0.2492
vn -0.0332 0.7165 -0.6968
vn 0.7806 0.0329 -0.6242
vn 0.8127 0.5614 -0.1561
vn 0.2509 0.1263 0.9597
vn 0.9364 0.1233 -0.3284
vn 0.9176 0.0485 0.3947
vn 0.1449 0.9608 -0.2365
vn 0.7520 0.1231 -0.6476
vn 0.2176 0.1934 0.9567
vn 0.0242 0.1106 0.9936
vn -0.0301 0.3696 -0.9287
vn 0.9105 0.1728 0.3756
vn 0.8999 0.1986 0.3883
vn 0.5718 0.4628 -0.6774
vn 0.7832 0.3889 -0.4851
vn 0.6032 0.5277 -0.5981
vn 0.0732 0.0430 0.9964
vn 0.4767 0.0114 -0.8790
vn 0.5194 0.8462 -0.1186
vn 0.9477 0.1957 -0.2522
vn 0.8455 -0.0020 -0.5340
vn 0.8884 0.0077 0.4589
vn 0.5073 0.0590 0.8598
vn 0.8792 0.0913 0.4676
vn 0.4772 0.1900 -0.8580
vn 0.7891 0.2003 -0.5807
vn 0.0201 0.1117 0.9935
vn 0.7885 -0.0489 -0.6131
vn 0.7799 0.1316 -0.6119
vn 0.1178 0.1187 -0.9859
vn 0.8138 0.1791 -0.5529
vn 0.5216 0.8035 -0.2869
vn 0.1376 0.9903 0.0206
vn 0.6011 0.4335 0.6714
vn 0.8606 0.3639 -0.3562
vn 0.8251 0.3878 -0.4109
vn 0.4042 0.7621 0.5058
vn 0.7825 0.3607 -0.5076
vn 0.3673 0.4403 0.8193
vn 0.8017 0.0369 -0.5966
vn 0.7999 0.5834 -0.1407
vn 0.4420 0.8876 -0.1297
vn 0.8808 0.3382 -0.3313
vn 0.6602 0.0880 -0.7459
vn 0.0939 0.8574 -0.5061
vn 0.5294 0.6846 -0.5011
vn 0.5486 0.8243 -0.1401
vn -0.5750 0.1682 0.8007
vn -0.3033 0.0412 0.9520
vn 0.9995 0.0204 0.0233
vn 0.7188 0.6763 -0.1613
vn 0.1844 0.9264 -0.3283
vn 0.1086 0.8716 0.4780
vn 0.6681 0.6533 -0.3561
vn 0.4915 0.1563 -0.8567
vn 0.5603 0.4536 -0.6931
vn 0.9773 0.2114 -0.0139
vn 0.9540 0.2989 0.0248
vn 0.4307 0.8962 -0.1064
vn -0.5571 0.1157 0.8223
vn 0.9370 -0.3393 -0.0837
vn 0.7960 0.5077 -0.3295
vn 0.1923 0.8145 0.5474
vn -0.5194 0.0780 0.8510
vn 0.7169 0.6950 -0.0556
vn -0.1224 0.4374 0.8909
vn 0.4180 0.4710 0.7768
vn -0.8031 0.0148 0.5957
vn -0.2343 0.1524 0.9601
vn 0.4781 0.0838 -0.8743
vn 0.6515 0.7580 0.0317
vn -0.0769 0.0390 0.9963
vn 0.0364 0.1867 0.9817
vn 0.0937 0.6450 -0.7585
vn -0.3691 -0.0681 0.9269
vn 0.4708 0.1735 -0.8650
vn -0.3280 -0.1289 0.9359
vn -0.1039 0.0694 0.9922
vn 0.0622 0.8767 0.4771
vn 0.1938 0.5137 0.8358
vn -0.3701 0.2464 0.8957
vn -0.0028 -0.4774 0.8787
vn 0.1762 0.5788 -0.7962
vn 0.1852 0.5195 0.8342
vn 0.9387 0.3410 -0.0504
vn -0.3461 0.1401 0.9277
vn 0.1495 0.3703 -0.9168
vn -0.0404 0.3336 0.9419
vn -0.2224 -0.1277 0.9666
vn -0.0953 0.5063 0.8571
vn -0.4978 0.0761 0.8640
vn -0.1871 -0.3392 0.9219
vn -0.3178 0.2406 0.9171
vn 0.6643 0.7268 0.1745
vn 0.0950 0.5267 0.8447
vn 0.2098 0.2337 -0.9494
vn 0.0365 -0.1506 0.9879
vn 0.8863 0.4470 0.1209
vn 0.8875 0.4447 0.1204
vn 0.3299 0.7686 -0.5481
vn -0.3411 -0.1672 0.9251
vn -0.1870 0.4179 0.8890
vn -0.0970 0.0198 0.9951
vn 0.5052 0.0143 0.8629
vn -0.0368 -0.1846 0.9821
vn -0.1738 -0.4491 0.8764
vn -0.5223 -0.2533 0.8143
vn 0.5745 0.7735 0.2676
vn 0.2809 0.5771 -0.7669
vn -0.1296 0.1310 0.9829
vn 0.8135 0.5369 0.2235
vn 0.4186 0.2809 -0.8636
vn -0.9190 -0.3902 0.0570
vn 0.4481 0.4347 -0.7812
vn 0.3920 0.7654 -0.5104
vn 0.3931 0.8527 -0.3440
vn 0.9809 0.1877 -0.0506
vn 0.7752 0.4952 0.3923
vn 0.5948 0.6951 0.4037
vn -0.8341 -0.5314 0.1478
vn 0.5900 0.5361 -0.6037
vn -0.8407 -0.5381 0.0604
vn 0.5694 0.4664 -0.6769
vn 0.4222 0.8447 -0.3290
vn -0.7496 0.6434 0.1552
vn -0.8052 0.5665 0.1755
vn -0.8197 0.5706 0.0507
vn 0.8095 0.3362 0.4813
vn 0.5026 0.1594 0.8497
vn 0.4592 0.0439 -0.8873
vn 0.5361 0.6951 0.4790
vn -0.8241 0.5600 0.0855
vn -0.8145 -0.5778 0.0518
vn -0.6470 0.0157 0.7623
vn -0.8471 0.5018 0.1750
vn -0.7319 -0.6546 0.1890
vn 0.6340 0.5371 -0.5564
vn -0.8345 0.5494 0.0415
vn 0.4164 0.7516 0.5117
vn 0.6742 0.6392 -0.3700
vn 0.6290 0.4033 0.6646
vn -0.3797 0.2625 -0.8871
vn -0.7761 -0.6118 0.1531
vn -0.3665 0.5350 -0.7612
vn -0.6746 -0.7343 0.0748
vn 0.9881 0.1239 -0.0909
vn -0.8848 0.4514 0.1154
vn -0.1689 0.7516 -0.6376
vn -0.6022 -0.7707 0.2081
vn -0.1601 0.7001 -0.6958
vn -0.0847 0.6370 -0.7662
vn -0.1267 0.3900 -0.9121
vn -0.9268 0.3630 0.0965
vn -0.1096 0.3587 -0.9270
vn -0.7252 -0.6840 0.0789
vn -0.2353 0.7805 -0.5792
vn -0.3197 0.3681 -0.8731
vn -0.6725 -0.7390 0.0412
vn -0.3863 0.1936 0.9018
vn -0.2167 0.8687 0.4455
vn -0.6732 -0.7014 0.2340
vn -0.2423 0.8973 -0.3690
vn -0.2496 0.8529 0.4586
vn -0.3199 0.9365 0.1437
vn -0.9296 0.3656 0.0468
vn -0.1603 0.9822 0.0978
vn -0.6126 -0.7808 0.1230
vn -0.3395 0.8760 -0.3425
vn -0.5787 0.8061 0.1237
vn -0.0403 0.9919 0.1206
vn -0.9415 0.3312 0.0626
vn -0.2646 0.9603 0.0883
vn -0.0579 0.9765 0.2078
vn -0.9454 0.2778 0.1706
vn -0.0560 0.9735 0.2218
vn 0.3912 0.1488 0.9082
vn -0.1007 0.9949 -0.0067
vn -0.2193 0.9490 -0.2266
vn -0.0734 0.9914 0.1084
vn -0.5615 -0.7934 0.2350
vn 0.0270 0.9995 0.0184
vn -0.9646 0.2030 0.1683
vn -0.3595 0.9305 -0.0704
vn 0.0311 0.8882 0.4583
vn -0.1684 0.9630 -0.2103
vn -0.1659 0.9718 0.1677
vn -0.3551 0.8769 0.3240
vn -0.2664 0.9025 -0.3383
vn -0.3367 0.1022 0.9360
vn 0.1141 0.1490 -0.9822
vn -0.4517 -0.8745 0.1764
vn -0.1097 0.2050 -0.9726
vn -0.0087 0.9775 0.2108
vn -0.4866 -0.8654 0.1198
vn -0.1019 0.9924 0.0685
vn -0.5312 -0.8464 0.0377
vn -0.9776 0.2013 0.0609
vn 0.0500 0.9955 -0.0805
vn -0.4911 -0.8625 0.1220
vn 0.2287 0.9730 0.0305
vn -0.4822 0.0577 0.8742
vn -0.9850 0.1386 0.1030
vn -0.7063 0.0422 0.7067
vn 0.4313 0.8793 0.2018
vn -0.9772 0.0334 0.2098
vn -0.2090 0.9631 0.1694
vn 0.4746 0.8798 0.0275
vn 0.2059 0.9407 0.2695
vn -0.6350 0.1888 0.7491
vn 0.3836 0.0171 -0.9233
vn -0.4521 0.0786 0.8885
vn -0.2876 -0.9368 0.1994
vn -0.9896 0.1403 0.0312
vn 0.3027 0.9432 -0.1366
vn 0.3015 0.9459 0.1199
vn 0.0654 0.9700 -0.2340
vn 0.0007 0.9628 -0.2701
vn -0.2351 0.9705 0.0538
vn 0.1366 0.8540 -0.5020
vn -0.0462 0.9030 -0.4271
vn -0.1091 0.2350 0.9658
vn -0.3381 0.9179 0.2076
vn -0.7040 0.0905 0.7044
vn 0.1288 0.8529 -0.5060
vn 0.5044 0.8465 -0.1702
vn -0.3321 0.9368 0.1100
vn -0.2926 -0.9348 0.2013
vn -0.4519 -0.8921 -0.0017
vn -0.0269 0.8821 -0.4702
vn -0.3024 0.9531 0.0167
vn -0.4067 0.9065 0.1139
vn 0.3109 0.1043 -0.9447
vn -0.3046 -0.9483 0.0894
vn 0.1762 0.9840 0.0265
vn 0.3301 0.1618 -0.9300
vn 0.4472 0.8896 -0.0930
vn -0.9920 -0.0553 0.1138
vn 0.2188 0.9157 0.3370
vn 0.2261 0.9405 -0.2536
vn 0.9912 0.0468 -0.1236
vn 0.3940 0.9094 0.1334
vn 0.2459 0.9245 -0.2912
vn 0.3473 0.8637 0.3653
vn -0.9900 -0.1032 0.0959
vn -0.9824 -0.0325 0.1840
vn -0.2817 0.7273 0.6259
vn -0.4298 0.8842 0.1827
vn -0.9953 -0.0841 0.0474
vn -0.3181 -0.9461 0.0611
vn -0.4608 0.6434 0.6113
vn -0.2464 -0.9638 0.1023
vn -0.2450 -0.9640 0.1031
vn 0.5257 0.0441 0.8495
vn -0.2585 0.4096 0.8749
vn -0.0559 0.6733 0.7373
vn -0.0760 -0.9791 0.1886
vn -0.4176 0.3443 0.8409
vn -0.4850 0.4199 0.7671
vn -0.4948 0.8673 0.0551
vn -0.9953 -0.0855 0.0464
vn -0.4725 0.8762 0.0953
vn -0.2983 0.6722 0.6776
vn -0.6029 0.6285 0.4914
vn -0.5921 0.4028 0.6980
vn -0.4991 0.7976 0.3386
vn -0.1090 0.2739 0.9555
vn -0.5921 0.7942 0.1370
vn -0.6842 0.5183 0.5130
vn -0.1800 0.7723 0.6092
vn -0.1983 -0.9801 0.0001
vn 0.0000 -1.0000 0.0000
vn -0.5468 0.8169 0.1837
vn -0.9195 -0.3127 0.2382
vn -0.5447 0.8376 0.0403
vn -0.9284 -0.3229 0.1836
vn -0.0001 -1.0000 -0.0001
vn -0.0484 -0.9892 0.1385
vn -0.0398 -0.9844 0.1714
vn -0.9213 -0.3513 0.1667
vn -0.0623 -0.9975 0.0333
vn -0.0671 -0.9963 0.0533
vn -0.6749 0.7285 0.1178
vn 0.0467 -0.9934 0.1047
vn -0.6784 0.7323 0.0590
vn -0.9441 -0.3090 0.1147
vn -0.6117 0.7575 0.2283
vn -0.0001 -1.0000 0.0001
vn -0.8827 -0.4388 0.1683
vn -0.9401 -0.3407 0.0135
vn -0.7745 0.6131 0.1561
vn 0.9874 0.0761 -0.1387
vn -0.7071 0.7056 0.0464
vn -0.3569 0.6235 0.6956
vn -0.0001 -1.0000 -0.0002
vn 0.0001 -1.0000 0.0001
vn -0.7104 0.5898 0.3840
vn 0.8604 0.2018 0.4679
vn 0.0000 -1.0000 0.0001
vn -0.3917 0.5182 0.7603
vn 0.7833 0.0415 0.6202
vn -0.6283 -0.6372 0.4463
vn -0.9020 0.3810 0.2029
vn -0.5563 0.4323 0.7097
vn -0.8441 0.3271 0.4249
vn -0.4947 0.4292 0.7557
vn -0.5405 -0.3645 0.7583
vn -0.5228 -0.6279 0.5765
vn 0.1257 -0.9841 0.1257
vn -0.0002 -1.0000 0.0000
vn -0.5327 -0.3566 0.7675
vn -0.8495 0.3549 0.3903
vn -0.4621 -0.6561 0.5967
vn -0.7455 0.1672 0.6452
vn -0.3586 -0.8283 0.4305
vn -0.6550 0.3465 0.6715
vn -0.8492 0.3640 0.3825
vn -0.5204 0.8468 -0.1102
vn -0.6587 0.1875 0.7287
vn -0.7450 0.4645 -0.4788
vn -0.0523 0.6969 -0.7152
vn -0.2809 -0.8337 0.4755
vn -0.8675 0.4921 0.0728
vn -0.8933 0.0193 0.4490
vn -0.9481 0.2411 0.2073
vn -0.4684 0.3152 -0.8254
vn -0.2331 -0.8757 0.4228
vn -0.1425 0.8738 0.4648
vn -0.3106 -0.5848 0.7493
vn -0.4790 0.7199 -0.5023
vn 0.6541 0.2015 0.7291
vn -0.9407 -0.0130 0.3389
vn -0.1030 0.8532 0.5114
vn -0.8141 0.4061 0.4152
vn -0.3134 -0.4471 0.8378
vn -0.1901 -0.6675 0.7199
vn -0.9528 0.1535 0.2621
vn -0.1122 0.6877 0.7173
vn -0.8434 0.5207 0.1326
vn -0.0472 -0.8971 0.4393
vn -0.4541 0.7558 -0.4717
vn -0.8447 0.0673 0.5310
vn 0.8626 0.0987 -0.4962
vn -0.5786 0.1508 0.8015
vn -0.9082 -0.2221 0.3547
vn -0.6413 0.1501 0.7524
vn -0.4848 0.8721 0.0657
vn -0.2303 0.8502 0.4734
vn -0.5916 0.7194 -0.3639
vn -0.3285 0.8900 0.3163
vn -0.5284 0.8096 0.2557
vn -0.5220 0.3215 0.7900
vn -0.5242 0.0777 0.8481
vn -0.8466 0.2593 0.4647
vn -0.8404 0.5339 0.0936
vn 0.9787 -0.0004 -0.2055
vn -0.9065 0.0019 0.4222
vn -0.7547 -0.1079 0.6471
vn -0.6350 0.7103 0.3037
vn -0.9325 0.0369 0.3592
vn -0.6690 0.1305 0.7317
vn -0.4646 0.2562 0.8476
vn -0.6600 -0.1128 0.7427
vn -0.1267 0.6263 0.7692
vn -0.7540 -0.4823 0.4460
vn -0.8135 -0.2295 0.5343
vn -0.5974 0.7027 0.3864
vn 0.2705 0.6071 0.7471
vn -0.7500 -0.4978 0.4355
vn -0.6449 0.6774 0.3539
vn -0.8015 -0.5528 0.2281
vn -0.3806 0.7062 0.5970
vn 0.7978 0.0855 0.5969
vn -0.1571 0.9246 0.3472
vn -0.7343 -0.4078 0.5426
vn -0.5805 0.6753 0.4550
vn -0.0219 0.2215 -0.9749
vn 0.8974 0.0031 0.4412
vn 0.7291 0.0190 0.6841
vn 0.8439 -0.0079 0.5364
vn 0.8215 -0.0248 0.5697
vn -0.0933 0.9262 -0.3654
vn 0.6384 -0.0328 0.7690
vn 0.9449 -0.0139 0.3270
vn -0.2871 0.5246 0.8015
vn -0.0000 0.0000 -1.0000
vn -0.7585 0.5443 0.3584
vn -0.0000 0.0001 -1.0000
vn 0.8690 0.2053 0.4502
vn -0.3570 0.2212 -0.9075
vn -0.4338 0.7214 -0.5398
vn 0.1516 0.0286 -0.9880
vn -0.0000 -0.0001 -1.0000
vn -0.7160 0.4384 -0.5433
vn -0.0947 0.9393 -0.3297
vn 0.0001 -0.0000 -1.0000
vn -0.0001 0.0000 -1.0000
vn -0.2836 0.8307 0.4790
vn -0.8731 0.4096 0.2646
vn -0.2291 0.1210 0.9659
vn 0.8222 -0.5691 0.0098
vn 0.7053 0.1277 0.6973
vn 0.0538 -0.9985 -0.0070
vn -0.9406 -0.0127 0.3393
vn 0.1590 -0.9825 0.0975
vn -0.2715 0.9002 -0.3406
vn -0.1854 0.2770 0.9428
vn -0.5007 0.4258 -0.7536
vn 0.8554 -0.4970 0.1458
vn 0.8875 -0.4222 0.1848
vn 0.2156 -0.9600 0.1788
vn 0.7443 0.0240 0.6674
vn 0.1934 0.1962 -0.9613
vn 0.1809 -0.9794 0.0893
vn 0.9442 -0.3263 0.0445
vn -0.9499 0.3118 -0.0223
vn -0.2507 0.1089 0.9619
vn -0.0434 0.9824 -0.1818
vn -0.0793 0.9804 0.1802
vn 0.1799 -0.9823 0.0523
vn 0.9481 -0.3150 0.0431
vn 0.3542 -0.9128 0.2033
vn -0.4765 0.5325 -0.6995
vn 0.9811 -0.1785 0.0746
vn 0.9758 -0.1929 0.1026
vn 0.9691 -0.1724 0.1762
vn 0.0669 0.1583 -0.9851
vn -0.0503 0.9771 0.2066
vn -0.6800 0.6108 -0.4056
vn -0.8795 0.4644 -0.1037
vn 0.3558 -0.9298 0.0946
vn 0.9729 -0.1590 0.1676
vn 0.9159 0.2056 -0.3448
vn 0.3890 -0.9146 0.1107
vn 0.2999 -0.9296 0.2141
vn -0.7498 0.5521 -0.3647
vn -0.7890 0.1681 0.5909
vn 0.9665 -0.2401 0.0911
vn -0.6501 0.7584 0.0475
vn 0.3533 -0.9354 -0.0116
vn 0.9984 -0.0538 -0.0143
vn -0.7320 0.6448 0.2201
vn 0.4080 -0.9124 0.0329
vn 0.4287 -0.8766 0.2185
vn -0.8084 0.2167 0.5473
vn -0.5277 0.4625 -0.7124
vn -0.5202 0.8447 -0.1257
vn 0.5404 -0.8329 0.1197
vn -0.8476 0.0459 0.5287
vn -0.3903 0.3306 -0.8593
vn 0.5538 -0.8148 0.1715
vn 0.7577 0.1179 0.6419
vn 0.2120 0.0540 -0.9758
vn -0.0890 0.4591 -0.8839
vn -0.5123 0.8588 0.0075
vn -0.9675 0.2274 0.1105
vn 0.9235 0.1492 -0.3533
vn -0.7373 0.5714 -0.3604
vn 0.6099 -0.7909 0.0500
vn -0.9002 0.0957 0.4249
vn -0.8706 0.0404 0.4903
vn 0.5058 -0.8516 0.1376
vn 0.8519 0.5220 -0.0420
vn 0.7652 0.6432 0.0266
vn -0.6631 0.6513 -0.3689
vn -0.8971 0.1606 0.4115
vn 0.7228 0.6902 0.0340
vn 0.5856 -0.8101 0.0297
vn 0.6034 0.7973 0.0138
vn -0.8909 0.0940 0.4444
vn 0.9302 0.0419 -0.3648
vn 0.9086 0.1782 -0.3777
vn 0.6859 0.1892 0.7026
vn -0.8031 0.1267 0.5822
vn -0.2307 0.5305 -0.8157
vn -0.7196 0.5416 0.4345
vn 0.4624 0.8840 0.0688
vn -0.4550 0.6671 -0.5899
vn 0.4863 0.8730 0.0386
vn 0.6185 0.0529 0.7840
vn -0.9377 0.3423 -0.0598
vn 0.7090 -0.6768 0.1980
vn -0.5353 0.4074 -0.7399
vn -0.7366 0.6731 -0.0659
vn -0.0656 0.5157 -0.8543
vn 0.7113 0.1238 0.6919
vn -0.6442 0.6702 -0.3686
vn 0.3457 0.9383 -0.0118
vn -0.2060 0.7756 -0.5967
vn 0.2231 0.9697 0.0996
vn -0.5519 0.6108 -0.5677
vn 0.1861 0.9807 0.0593
vn 0.6978 -0.7139 0.0578
vn 0.7174 -0.6889 0.1036
vn 0.3115 -0.2716 0.9106
vn 0.2468 -0.3217 0.9141
vn 0.7107 -0.6946 0.1109
vn 0.2143 -0.1181 0.9696
vn 0.0132 -0.5302 0.8478
vn 0.4090 -0.0968 0.9074
vn 0.0129 0.9927 0.1203
vn 0.2475 -0.5368 0.8066
vn 0.7249 -0.6623 0.1892
vn 0.2730 -0.1564 0.9492
vn 0.1189 -0.3270 0.9375
vn 0.8165 -0.5771 0.0192
vn 0.4903 -0.1645 0.8559
vn 0.0064 -0.2114 0.9774
vn 0.9352 0.0715 -0.3469
vn 0.3805 -0.2803 0.8813
vn 0.8823 -0.4424 0.1608
vn 0.5974 -0.6276 0.4992
vn 0.8640 -0.4932 0.1014
vn 0.0497 -0.7386 0.6724
vn 0.2366 -0.8823 0.4068
vn 0.0907 -0.9769 0.1936
vn 0.8599 -0.4970 0.1163
vn -0.0152 -0.5996 0.8001
vn 0.2642 -0.5467 0.7946
vn 0.2172 0.0799 -0.9728
vn 0.5484 -0.6815 0.4846
vn 0.5370 -0.6459 0.5426
vn 0.2635 -0.7776 0.5709
vn 0.6742 -0.6438 0.3619
vn 0.2790 -0.7637 0.5822
vn 0.0830 -0.9187 0.3862
vn 0.4627 -0.4958 0.7349
vn 0.4655 -0.4232 0.7773
vn 0.9144 0.1097 -0.3896
vn -0.0450 -0.8968 0.4401
vn 0.8589 -0.3807 0.3425
vn 0.4051 -0.3810 0.8311
vn -0.0281 0.9978 -0.0597
vn -0.0295 0.9921 -0.1218
vn -0.0121 0.9952 -0.0974
vn -0.9201 0.2666 0.2870
vn 0.4040 -0.3739 0.8349
vn -0.0131 0.9816 -0.1907
vn -0.2766 -0.7236 0.6323
vn -0.1152 0.8284 -0.5482
vn 0.1802 0.8203 -0.5429
vn 0.0700 0.3343 -0.9399
vn 0.0196 0.3794 -0.9250
vn -0.0750 0.3928 -0.9166
vn -0.2192 0.4629 -0.8589
vn -0.5205 0.6606 -0.5410
vn -0.0041 0.6750 -0.7378
vn -0.1924 0.6768 -0.7106
vn -0.0946 0.7163 -0.6913
vn 0.0033 0.9999 -0.0140
vn -0.0015 1.0000 -0.0022
vn -0.0742 0.6889 -0.7211
vn 0.0928 0.6791 -0.7281
vn 0.0066 0.9999 -0.0149
vn 0.3249 0.6780 -0.6594
vn 0.1496 0.6518 -0.7435
vn 0.2670 0.3122 -0.9117
vn 0.4052 0.3270 -0.8537
vn 0.4256 0.3560 -0.8320
vn 0.2089 0.3797 -0.9012
vn 0.3093 0.6856 -0.6590
vn 0.4941 0.3115 -0.8117
vn 0.7253 0.3208 -0.6091
vn 0.6899 0.2767 -0.6690
vn 0.4902 0.6951 -0.5259
vn 0.7125 0.2729 -0.6464
vn 0.7911 0.4361 -0.4289
vn 0.6104 0.7069 -0.3574
vn 0.5051 0.7392 -0.4455
vn 0.6186 0.7373 -0.2715
vn 0.0029 1.0000 -0.0023
vn 0.0044 1.0000 -0.0046
vn -0.0001 1.0000 0.0011
vn 0.6804 0.7208 -0.1325
vn 0.6474 0.7615 0.0313
vn 0.0017 1.0000 -0.0004
vn 0.6838 0.7182 -0.1293
vn 0.8928 0.4100 0.1866
vn 0.9232 0.3629 0.1262
vn 0.9117 0.3844 -0.1453
vn 0.6639 0.7377 0.1229
vn 0.5821 0.7587 0.2926
vn 0.8339 0.3449 0.4310
vn 0.8983 0.3231 0.2976
vn 0.5966 0.7804 0.1873
vn 0.4983 0.7878 0.3622
vn 0.0024 1.0000 0.0018
vn 0.0006 1.0000 -0.0006
vn 0.0063 0.9999 0.0121
vn 0.0009 1.0000 0.0097
vn -0.0010 1.0000 0.0038
vn -0.0007 1.0000 -0.0097
vn 0.0011 1.0000 -0.0001
vn -0.0065 0.9999 0.0099
vn -0.0069 1.0000 0.0021
vn -0.0081 1.0000 -0.0002
vn -0.0030 1.0000 -0.0012
vn -0.0005 1.0000 -0.0008
vn 0.0623 0.9980 0.0043
vn -0.6875 0.6561 0.3112
vn -0.7065 0.6889 0.1623
vn -0.7092 0.6438 0.2872
vn -0.7005 0.6962 0.1568
vn -0.5902 0.6715 0.4480
vn -0.7234 0.3567 0.5911
vn -0.8395 0.4015 0.3661
vn -0.8403 0.2838 0.4619
vn -0.8461 0.2500 0.4708
vn -0.8796 0.2425 0.4092
vn -0.8996 0.3317 0.2840
vn -0.8247 0.3173 0.4681
vn -0.5102 0.8077 0.2955
vn 0.2774 0.9607 -0.0091
vn -0.8149 0.3677 0.4480
vn -0.9196 0.3416 0.1941
vn -0.9193 0.3422 0.1945
vn -0.2925 -0.9438 0.1540
vn -0.2231 -0.9744 -0.0277
vn -0.1569 -0.9876 -0.0019
vn -0.9390 0.3234 0.1168
vn -0.9267 0.3484 0.1408
vn -0.0519 0.9986 -0.0078
vn -0.1350 0.9894 -0.0536
vn -0.0633 0.9976 -0.0272
vn -0.0600 0.9659 -0.2520
vn -0.1126 0.9932 0.0290
vn -0.1572 0.9863 0.0507
vn -0.8473 0.4885 -0.2085
vn -0.8064 0.4069 -0.4292
vn -0.8876 0.3580 -0.2897
vn 0.1044 -0.9943 0.0196
vn 0.1775 -0.9790 0.1006
vn -0.8143 0.2719 -0.5129
vn 0.0241 -0.9997 -0.0089
vn 0.0659 -0.9965 -0.0506
vn 0.8503 -0.2485 0.4640
vn 0.5790 -0.1345 -0.8041
vn 0.3293 0.1360 -0.9344
vn -0.0036 -0.9958 -0.0917
vn -0.1396 -0.9652 -0.2210
vn -0.7313 0.3339 -0.5948
vn -0.2945 -0.7934 -0.5328
vn -0.2790 -0.8950 -0.3480
vn -0.3689 -0.8721 -0.3215
vn -0.0758 -0.9814 -0.1766
vn -0.3452 -0.0903 0.9342
vn -0.9242 0.3010 -0.2350
vn -0.9211 0.3081 -0.2380
vn -0.5593 -0.7928 -0.2422
vn -0.4319 -0.1158 0.8944
vn -0.3510 -0.9064 -0.2352
vn -0.3189 -0.9476 -0.0194
vn -0.9088 0.4097 -0.0785
vn -0.7017 0.5809 -0.4126
vn -0.8751 0.4024 -0.2688
vn -0.7124 -0.0120 -0.7016
vn -0.5202 0.6891 -0.5045
vn -0.5538 0.5324 -0.6402
vn -0.4757 -0.8617 -0.1765
vn -0.2069 -0.9335 -0.2928
vn 0.0966 -0.9925 0.0749
vn -0.9346 -0.2677 0.2342
vn -0.0789 -0.9450 0.3173
vn -0.7965 -0.2969 0.5268
vn -0.8033 -0.2902 0.5201
vn -0.3348 -0.8596 0.3861
vn -0.5875 -0.6854 0.4302
vn -0.5173 -0.7986 0.3077
vn -0.2025 -0.9375 0.2830
vn -0.3778 -0.9080 0.1812
vn -0.2430 -0.8538 0.4605
vn -0.1301 -0.8431 0.5218
vn -0.0041 -0.9307 0.3656
vn 0.1794 -0.8272 0.5325
vn 0.0609 -0.8792 0.4725
vn -0.0253 -0.9654 0.2597
vn 0.2022 -0.8704 0.4490
vn -0.0255 -0.9992 -0.0315
vn 0.3582 -0.8761 0.3227
vn 0.4570 -0.8209 0.3424
vn 0.4390 -0.8792 0.1853
vn 0.3661 -0.9221 0.1252
vn 0.5310 -0.8409 0.1045
vn 0.5745 -0.8151 0.0745
vn 0.4835 -0.8752 -0.0174
vn 0.3863 -0.9209 -0.0527
vn 0.6017 -0.7814 -0.1655
vn 0.4780 -0.8409 -0.2540
vn 0.3690 -0.8993 -0.2346
vn 0.4526 -0.7960 -0.4020
vn 0.5444 -0.7319 -0.4097
vn -0.0832 -0.9927 0.0872
vn 0.2341 -0.9099 -0.3425
vn 0.1249 -0.9467 0.2970
vn 0.2638 -0.9643 -0.0229
vn 0.1645 -0.7813 -0.6020
vn -0.1154 -0.8423 -0.5266
vn -0.1308 -0.6677 -0.7328
vn -0.1354 0.6384 -0.7577
vn -0.2990 0.6993 -0.6492
vn -0.2395 0.7527 -0.6133
vn -0.3257 -0.4888 -0.8093
vn -0.2663 0.4108 -0.8720
vn -0.2607 0.3812 -0.8870
vn -0.3717 0.5139 -0.7731
vn -0.3652 0.5209 -0.7715
vn -0.2203 -0.8679 -0.4453
vn -0.1625 -0.8541 -0.4940
vn -0.1601 -0.8885 -0.4300
vn -0.0326 -0.9503 -0.3097
vn -0.0893 0.3010 -0.9494
vn -0.1038 0.2632 -0.9591
vn -0.0042 -0.8601 -0.5101
vn 0.1123 -0.9199 -0.3757
vn 0.1142 -0.8572 -0.5021
vn 0.2272 -0.0920 -0.9695
vn 0.3215 0.2169 -0.9217
vn 0.3054 -0.7730 -0.5560
vn 0.4700 0.1718 -0.8658
vn 0.4093 0.2071 -0.8886
vn 0.3213 -0.7238 -0.6107
vn 0.4805 -0.6333 -0.6067
vn 0.6154 0.1959 -0.7635
vn 0.5425 0.1995 -0.8160
vn 0.0249 -0.9973 -0.0694
vn 0.2384 0.2419 -0.9406
vn 0.2819 0.2422 -0.9284
vn -0.1235 -0.9805 -0.1527
vn -0.0316 -0.9871 0.1569
vn -0.0292 -0.9988 -0.0381
vn -0.0712 -0.9956 -0.0606
vn 0.3422 0.1322 -0.9303
vn -0.3456 -0.1269 0.9298
vn 0.0055 -0.9998 0.0183
vn -0.0253 0.3553 -0.9344
vn 0.2873 0.3187 -0.9033
vn -0.0130 -0.9996 0.0270
vn -0.4918 0.2985 -0.8180
vn -0.1968 0.6108 -0.7670
vn 0.0884 -0.9805 0.1754
vn 0.1610 -0.9735 0.1622
vn -0.6684 0.3237 -0.6697
vn 0.0768 -0.9468 0.3126
vn -0.5339 0.4695 -0.7032
vn 0.0471 0.9974 0.0545
vn -0.7100 0.3877 -0.5879
vn 0.1520 -0.9822 0.1099
vn 0.6361 -0.1450 0.7579
vn -0.7158 -0.2176 0.6636
vn 0.0425 -0.9960 0.0788
vn -0.9167 0.1239 0.3799
vn 0.0690 -0.9852 0.1571
vn -0.6609 0.4560 -0.5960
vn -0.1649 0.9260 -0.3395
vn -0.6479 0.4982 -0.5762
vn -0.5620 0.5024 -0.6571
vn -0.5805 0.5161 -0.6298
vn -0.4350 0.2883 -0.8530
vn -0.4235 0.3073 -0.8522
vn -0.2955 0.7522 -0.5889
vn 0.7222 0.0263 -0.6912
vn -0.1034 0.9882 -0.1126
vn -0.4481 0.5107 -0.7338
vn -0.3510 0.4574 -0.8171
vn -0.9121 0.2185 0.3468
vn -0.0091 0.9807 -0.1955
vn -0.4636 0.7165 -0.5212
vn -0.3592 0.7387 -0.5704
vn -0.4807 0.7307 -0.4848
vn -0.4118 0.7890 -0.4559
vn -0.3039 0.7796 -0.5475
vn -0.3128 0.7621 -0.5669
vn -0.0009 1.0000 -0.0022
vn -0.0011 1.0000 -0.0041
vn -0.2594 0.8033 -0.5362
vn -0.4278 0.8087 -0.4037
vn -0.5874 0.7613 -0.2745
vn -0.5048 0.8158 -0.2822
vn -0.5698 0.7596 -0.3136
vn -0.5674 0.7155 -0.4075
vn -0.6844 0.5413 -0.4884
vn -0.6554 0.7166 -0.2385
vn -0.8189 0.4974 -0.2864
vn -0.7678 0.5142 -0.3822
vn -0.3784 0.1293 0.9166
vn -0.6145 0.7731 -0.1572
vn -0.8713 0.4441 -0.2086
vn -0.6324 0.7568 -0.1654
vn -0.8900 0.4471 -0.0898
vn 0.4224 0.3549 -0.8340
vn -0.6632 0.7455 -0.0664
vn -0.6582 0.7477 -0.0881
vn -0.7269 0.6868 0.0012
vn -0.8656 0.5005 0.0163
vn -0.7107 0.6886 0.1437
vn -0.9316 0.2859 0.2246
vn 0.6851 -0.4502 0.5727
vn -0.0531 0.9969 -0.0583
vn -0.0516 0.9971 -0.0557
vn -0.0735 0.9946 -0.0728
vn 0.7548 0.0537 -0.6537
vn -0.1272 -0.9820 -0.1399
vn 0.7428 0.1376 -0.6552
vn 0.6750 0.2097 -0.7074
vn 0.8553 0.1869 -0.4833
vn 0.8209 0.2079 -0.5318
vn 0.8198 0.2098 -0.5328
vn 0.8516 0.3368 -0.4015
vn 0.9016 0.2893 -0.3216
vn 0.9315 0.2072 -0.2991
vn 0.8424 0.5315 -0.0886
vn 0.9704 0.2271 -0.0821
vn 0.9153 0.2249 -0.3341
vn 0.9617 0.1108 -0.2508
vn 0.9708 0.2365 -0.0405
vn 0.9753 0.2118 -0.0623
vn 0.9755 0.2001 0.0911
vn 0.9754 0.2096 0.0683
vn 0.9507 0.1974 0.2394
vn 0.9014 0.1743 0.3962
vn 0.9370 0.2090 0.2800
vn 0.8027 0.1967 0.5630
vn 0.8372 0.2112 0.5045
vn 0.6933 0.4059 0.5955
vn 0.8391 0.3597 0.4080
vn 0.6941 0.4128 0.5897
vn 0.7671 0.2098 0.6063
vn 0.6558 0.2140 0.7240
vn 0.6140 0.3364 0.7140
vn 0.6777 0.2050 0.7062
vn 0.4135 -0.7939 0.4459
vn 0.3901 -0.7530 0.5299
vn 0.5599 0.1950 0.8053
vn 0.2611 -0.8230 0.5045
vn 0.4457 0.2048 0.8714
vn 0.4727 0.2112 0.8555
vn 0.3593 0.2145 0.9083
vn 0.3038 0.3473 0.8872
vn 0.3142 0.3672 0.8755
vn 0.5121 0.3873 0.7667
vn 0.5014 0.4029 0.7657
vn 0.3300 0.7893 0.5178
vn 0.2109 0.7504 0.6264
vn 0.1740 0.3476 0.9214
vn 0.1432 0.3696 0.9181
vn 0.0745 0.7635 0.6415
vn 0.0039 0.3253 0.9456
vn -0.0827 0.3876 0.9181
vn -0.0848 0.7164 0.6925
vn 0.0630 0.7691 0.6361
vn -0.2267 0.7537 0.6168
vn -0.2651 0.7309 0.6289
vn -0.3217 0.3641 0.8740
vn -0.2458 0.2627 0.9331
vn -0.2181 0.2599 0.9407
vn -0.4564 0.2886 0.8417
vn -0.3521 0.1959 0.9152
vn -0.4684 0.1977 0.8611
vn -0.4416 0.1802 0.8789
vn -0.5910 0.4431 0.6741
vn -0.5979 0.1991 0.7765
vn -0.5372 0.3061 0.7859
vn -0.7146 0.3105 0.6269
vn -0.7357 0.2109 0.6436
vn -0.6610 0.1743 0.7298
vn -0.1691 0.2026 0.9645
vn -0.2418 0.1561 0.9577
vn -0.4328 0.6922 0.5776
vn 0.0132 0.2079 0.9781
vn -0.0737 0.1844 0.9801
vn 0.1728 0.2005 0.9643
vn 0.1200 0.1846 0.9755
vn 0.3028 0.1928 0.9334
vn 0.4899 0.7627 0.4223
vn 0.3263 0.7732 0.5438
vn -0.7741 0.1951 0.6022
vn -0.8395 0.2352 0.4898
vn -0.9045 0.2945 0.3086
vn -0.9786 0.1244 0.1638
vn -0.5339 0.5533 -0.6394
vn 0.2549 0.1790 -0.9503
vn -0.2129 -0.9765 -0.0321
vn -0.1208 0.9911 -0.0553
vn -0.1250 0.9903 -0.0602
vn -0.0953 0.9944 -0.0458
vn 0.9215 -0.3131 0.2299
vn 0.9136 -0.3312 0.2359
vn -0.1086 -0.9885 -0.1051
vn 0.3724 0.0771 -0.9248
vn -0.5078 0.7215 0.4707
vn -0.6351 0.7705 -0.0546
vn 0.1140 0.3228 -0.9396
usemtl Material.003
s off
f 1//1 2//1 3//1
f 4//2 1//2 3//2
f 5//3 6//3 7//3
f 8//4 9//4 10//4
f 11//5 12//5 13//5
f 14//6 15//6 16//6
f 17//7 18//7 19//7
f 20//8 21//8 22//8
f 18//9 23//9 24//9
f 25//10 26//10 15//10
f 27//11 18//11 17//11
f 28//12 29//12 30//12
f 31//13 32//13 33//13
f 34//14 35//14 36//14
f 37//15 38//15 39//15
f 40//16 26//16 25//16
f 41//17 22//17 42//17
f 33//18 32//18 43//18
f 44//19 36//19 45//19
f 15//20 46//20 16//20
f 21//21 47//21 22//21
f 48//22 49//22 21//22
f 36//23 35//23 50//23
f 18//24 24//24 19//24
f 28//25 19//25 51//25
f 8//26 13//26 52//26
f 7//27 32//27 31//27
f 36//28 50//28 45//28
f 20//29 22//29 41//29
f 8//30 52//30 9//30
f 15//31 26//31 46//31
f 48//32 21//32 20//32
f 22//33 47//33 42//33
f 40//34 53//34 54//34
f 26//35 54//35 46//35
f 26//36 40//36 54//36
f 35//37 55//37 56//37
f 7//38 6//38 57//38
f 58//39 54//39 53//39
f 21//40 49//40 59//40
f 60//41 61//41 23//41
f 46//42 62//42 16//42
f 35//43 56//43 50//43
f 7//44 57//44 32//44
f 44//45 45//45 63//45
f 47//46 64//46 42//46
f 65//47 66//47 67//47
f 46//48 54//48 62//48
f 6//49 68//49 57//49
f 32//50 57//50 69//50
f 19//51 24//51 51//51
f 59//52 70//52 21//52
f 21//53 70//53 47//53
f 27//54 60//54 18//54
f 27//55 71//55 60//55
f 56//56 60//56 71//56
f 32//57 69//57 43//57
f 30//58 17//58 28//58
f 55//59 72//59 56//59
f 63//60 45//60 27//60
f 16//61 62//61 73//61
f 64//62 74//62 42//62
f 31//63 75//63 7//63
f 47//64 70//64 64//64
f 76//65 53//65 40//65
f 54//66 58//66 77//66
f 57//67 8//67 69//67
f 62//68 78//68 73//68
f 54//69 79//69 62//69
f 29//70 28//70 80//70
f 77//71 79//71 54//71
f 81//72 67//72 56//72
f 37//73 39//73 65//73
f 82//74 83//74 5//74
f 45//75 50//75 71//75
f 45//76 71//76 27//76
f 84//77 85//77 86//77
f 77//78 58//78 87//78
f 5//79 84//79 86//79
f 63//80 27//80 17//80
f 88//81 87//81 89//81
f 72//82 37//82 81//82
f 77//83 87//83 88//83
f 63//84 17//84 30//84
f 56//85 67//85 61//85
f 56//86 61//86 60//86
f 72//87 81//87 56//87
f 12//88 11//88 90//88
f 10//89 9//89 91//89
f 20//90 41//90 92//90
f 89//91 93//91 94//91
f 81//92 65//92 67//92
f 95//93 96//93 97//93
f 50//94 56//94 71//94
f 17//95 19//95 28//95
f 18//96 60//96 23//96
f 34//97 44//97 98//97
f 34//98 36//98 44//98
f 81//99 37//99 65//99
f 12//100 90//100 99//100
f 98//101 44//101 100//101
f 94//102 88//102 89//102
f 95//103 86//103 96//103
f 101//104 102//104 103//104
f 94//105 93//105 104//105
f 105//106 106//106 107//106
f 6//107 5//107 86//107
f 108//108 109//108 110//108
f 107//109 101//109 111//109
f 112//110 25//110 15//110
f 104//111 93//111 113//111
f 114//112 115//112 116//112
f 57//113 68//113 8//113
f 117//114 118//114 119//114
f 111//115 101//115 103//115
f 25//116 76//116 40//116
f 120//117 103//117 121//117
f 116//118 115//118 111//118
f 122//119 95//119 97//119
f 6//120 86//120 68//120
f 101//121 123//121 102//121
f 124//122 125//122 126//122
f 127//123 118//123 117//123
f 68//124 86//124 95//124
f 49//125 88//125 94//125
f 52//126 12//126 9//126
f 127//127 128//127 118//127
f 107//128 115//128 105//128
f 116//129 111//129 120//129
f 106//130 105//130 129//130
f 9//131 12//131 91//131
f 126//132 121//132 124//132
f 101//133 107//133 123//133
f 104//134 113//134 130//134
f 68//135 95//135 131//135
f 76//136 128//136 127//136
f 126//137 132//137 116//137
f 59//138 49//138 94//138
f 59//139 94//139 104//139
f 133//140 117//140 134//140
f 111//141 103//141 120//141
f 106//142 123//142 107//142
f 69//143 10//143 43//143
f 135//144 31//144 33//144
f 126//145 116//145 120//145
f 126//146 120//146 121//146
f 121//147 103//147 136//147
f 130//148 113//148 85//148
f 133//149 127//149 117//149
f 115//150 107//150 111//150
f 59//151 104//151 130//151
f 76//152 127//152 53//152
f 137//153 138//153 139//153
f 53//154 127//154 133//154
f 133//155 134//155 140//155
f 140//156 134//156 141//156
f 88//157 49//157 48//157
f 83//158 59//158 130//158
f 83//159 130//159 85//159
f 142//160 143//160 138//160
f 140//161 58//161 133//161
f 142//162 138//162 137//162
f 53//163 133//163 58//163
f 89//164 140//164 141//164
f 144//165 145//165 146//165
f 144//166 147//166 145//166
f 148//167 146//167 149//167
f 82//168 59//168 83//168
f 75//169 5//169 7//169
f 112//170 15//170 14//170
f 84//171 83//171 85//171
f 148//172 144//172 146//172
f 150//173 142//173 137//173
f 99//174 108//174 151//174
f 152//175 147//175 144//175
f 153//176 143//176 154//176
f 87//177 58//177 140//177
f 155//178 148//178 149//178
f 86//179 85//179 96//179
f 87//180 140//180 89//180
f 5//181 83//181 84//181
f 156//182 157//182 158//182
f 154//183 143//183 142//183
f 159//184 157//184 160//184
f 150//185 154//185 142//185
f 161//186 48//186 20//186
f 152//187 144//187 148//187
f 119//188 160//188 162//188
f 163//189 153//189 154//189
f 159//190 160//190 119//190
f 118//191 159//191 119//191
f 158//192 159//192 118//192
f 164//193 152//193 148//193
f 158//194 118//194 128//194
f 165//195 154//195 150//195
f 160//196 166//196 162//196
f 158//197 157//197 159//197
f 167//198 165//198 150//198
f 52//199 13//199 12//199
f 168//200 169//200 122//200
f 163//201 154//201 170//201
f 162//202 166//202 171//202
f 168//203 122//203 172//203
f 173//204 174//204 168//204
f 175//205 148//205 155//205
f 176//206 168//206 177//206
f 165//207 170//207 154//207
f 166//208 178//208 179//208
f 173//209 180//209 174//209
f 168//210 172//210 97//210
f 175//211 164//211 148//211
f 176//212 173//212 168//212
f 181//213 182//213 183//213
f 184//214 152//214 164//214
f 177//215 168//215 97//215
f 185//216 5//216 75//216
f 176//217 177//217 186//217
f 179//218 176//218 171//218
f 187//219 182//219 38//219
f 188//220 163//220 170//220
f 189//221 38//221 190//221
f 191//222 184//222 164//222
f 179//223 173//223 176//223
f 172//224 122//224 97//224
f 176//225 186//225 171//225
f 183//226 182//226 187//226
f 174//227 169//227 168//227
f 179//228 171//228 166//228
f 69//229 8//229 10//229
f 51//230 128//230 28//230
f 188//231 170//231 192//231
f 51//232 158//232 128//232
f 97//233 193//233 177//233
f 192//234 170//234 165//234
f 187//235 38//235 189//235
f 194//236 165//236 167//236
f 195//237 164//237 175//237
f 196//238 186//238 177//238
f 192//239 165//239 194//239
f 193//240 197//240 196//240
f 91//241 99//241 151//241
f 191//242 164//242 195//242
f 99//243 109//243 108//243
f 198//244 85//244 113//244
f 199//245 184//245 191//245
f 200//246 183//246 187//246
f 197//247 113//247 93//247
f 193//248 97//248 198//248
f 11//249 201//249 90//249
f 202//250 112//250 14//250
f 91//251 12//251 99//251
f 203//252 188//252 192//252
f 204//253 195//253 175//253
f 196//254 197//254 141//254
f 193//255 198//255 197//255
f 205//256 186//256 196//256
f 205//257 171//257 186//257
f 206//258 187//258 189//258
f 205//259 134//259 117//259
f 205//260 162//260 171//260
f 68//261 13//261 8//261
f 183//262 200//262 207//262
f 99//263 90//263 109//263
f 119//264 205//264 117//264
f 141//265 93//265 89//265
f 200//266 187//266 206//266
f 208//267 203//267 192//267
f 209//268 194//268 167//268
f 162//269 205//269 119//269
f 206//270 189//270 210//270
f 211//271 200//271 206//271
f 80//272 25//272 112//272
f 212//273 192//273 194//273
f 177//274 193//274 196//274
f 80//275 76//275 25//275
f 141//276 197//276 93//276
f 213//277 191//277 195//277
f 97//278 96//278 198//278
f 205//279 141//279 134//279
f 214//280 20//280 92//280
f 198//281 113//281 197//281
f 205//282 196//282 141//282
f 198//283 96//283 85//283
f 213//284 195//284 139//284
f 199//285 191//285 213//285
f 215//286 216//286 169//286
f 211//287 207//287 200//287
f 204//288 139//288 195//288
f 212//289 194//289 209//289
f 217//290 201//290 180//290
f 218//291 208//291 192//291
f 218//292 192//292 212//292
f 75//293 31//293 135//293
f 216//294 13//294 131//294
f 131//295 95//295 122//295
f 219//296 203//296 208//296
f 11//297 13//297 216//297
f 11//298 216//298 215//298
f 220//299 206//299 210//299
f 139//300 204//300 221//300
f 220//301 211//301 206//301
f 131//302 122//302 169//302
f 215//303 169//303 180//303
f 201//304 11//304 215//304
f 180//305 169//305 174//305
f 13//306 68//306 131//306
f 222//307 211//307 220//307
f 201//308 215//308 180//308
f 216//309 131//309 169//309
f 223//310 212//310 209//310
f 43//311 224//311 14//311
f 207//312 211//312 222//312
f 225//313 226//313 199//313
f 220//314 210//314 227//314
f 225//315 199//315 213//315
f 14//316 224//316 202//316
f 228//317 208//317 218//317
f 202//311 224//311 30//311
f 43//311 110//311 224//311
f 228//318 219//318 208//318
f 225//319 213//319 138//319
f 43//311 108//311 110//311
f 229//320 218//320 212//320
f 10//311 108//311 43//311
f 229//321 212//321 223//321
f 146//322 222//322 220//322
f 30//311 2//311 63//311
f 229//323 228//323 218//323
f 146//324 220//324 227//324
f 138//325 213//325 139//325
f 145//326 207//326 222//326
f 151//327 108//327 91//327
f 91//311 108//311 10//311
f 143//328 225//328 138//328
f 137//329 139//329 221//329
f 63//311 2//311 230//311
f 145//330 222//330 146//330
f 161//331 20//331 214//331
f 33//311 43//311 135//311
f 135//311 43//311 74//311
f 146//332 227//332 149//332
f 231//333 232//333 106//333
f 74//311 43//311 42//311
f 42//334 43//334 41//334
f 41//335 43//335 92//335
f 92//311 43//311 73//311
f 145//336 147//336 233//336
f 73//311 43//311 16//311
f 59//337 82//337 70//337
f 16//311 43//311 14//311
f 3//338 234//338 235//338
f 106//339 232//339 123//339
f 30//311 3//311 2//311
f 44//311 230//311 100//311
f 234//338 236//338 235//338
f 64//340 237//340 74//340
f 153//341 163//341 238//341
f 147//342 152//342 184//342
f 232//343 233//343 102//343
f 147//344 184//344 233//344
f 232//345 102//345 123//345
f 238//346 239//346 136//346
f 238//347 163//347 239//347
f 63//311 230//311 44//311
f 235//348 236//348 114//348
f 3//349 224//349 234//349
f 136//350 239//350 121//350
f 233//351 184//351 240//351
f 30//311 224//311 3//311
f 163//352 241//352 239//352
f 242//353 243//353 109//353
f 188//354 241//354 163//354
f 233//355 240//355 102//355
f 244//356 245//356 217//356
f 178//357 246//357 179//357
f 240//358 247//358 102//358
f 248//359 249//359 250//359
f 24//360 23//360 61//360
f 203//361 251//361 188//361
f 249//362 252//362 253//362
f 184//363 199//363 240//363
f 254//364 255//364 256//364
f 157//365 156//365 257//365
f 188//366 251//366 241//366
f 181//367 231//367 258//367
f 241//368 124//368 239//368
f 259//369 260//369 261//369
f 5//370 185//370 82//370
f 224//371 255//371 234//371
f 181//372 183//372 231//372
f 253//373 262//373 255//373
f 239//374 124//374 121//374
f 241//375 251//375 124//375
f 199//376 263//376 240//376
f 129//377 258//377 231//377
f 264//378 254//378 244//378
f 203//379 219//379 251//379
f 178//380 166//380 265//380
f 240//381 263//381 247//381
f 62//382 79//382 78//382
f 255//383 262//383 266//383
f 199//384 226//384 263//384
f 255//385 266//385 234//385
f 261//386 260//386 252//386
f 183//387 267//387 231//387
f 265//388 246//388 178//388
f 183//389 207//389 267//389
f 252//390 260//390 253//390
f 129//391 262//391 253//391
f 247//392 103//392 102//392
f 217//393 245//393 242//393
f 264//394 268//394 254//394
f 73//395 214//395 92//395
f 269//396 224//396 110//396
f 263//397 136//397 247//397
f 253//398 260//398 129//398
f 256//399 255//399 269//399
f 266//400 236//400 234//400
f 262//401 115//401 266//401
f 247//402 136//402 103//402
f 129//403 231//403 106//403
f 225//404 238//404 226//404
f 263//405 226//405 136//405
f 207//406 232//406 267//406
f 260//407 258//407 129//407
f 225//408 153//408 238//408
f 207//409 233//409 232//409
f 225//410 143//410 153//410
f 267//411 232//411 231//411
f 64//412 70//412 237//412
f 259//413 181//413 260//413
f 226//414 238//414 136//414
f 207//415 145//415 233//415
f 51//416 24//416 158//416
f 270//417 4//417 271//417
f 272//418 1//418 273//418
f 273//419 4//419 270//419
f 1//420 4//420 273//420
f 61//421 66//421 259//421
f 2//422 1//422 272//422
f 4//423 3//423 271//423
f 129//424 105//424 262//424
f 167//425 98//425 209//425
f 209//425 98//425 223//425
f 180//426 244//426 217//426
f 204//427 98//427 221//427
f 221//425 98//425 137//425
f 82//428 274//428 70//428
f 137//425 98//425 150//425
f 150//425 98//425 167//425
f 158//429 24//429 156//429
f 166//430 160//430 265//430
f 149//427 98//427 155//427
f 155//425 98//425 175//425
f 30//431 29//431 202//431
f 175//432 98//432 204//432
f 210//425 98//425 227//425
f 227//432 98//432 149//432
f 190//425 98//425 189//425
f 189//425 98//425 210//425
f 275//425 98//425 190//425
f 248//433 257//433 249//433
f 67//434 66//434 61//434
f 98//435 276//435 277//435
f 278//436 276//436 98//436
f 260//437 181//437 258//437
f 279//435 278//435 98//435
f 98//425 277//425 280//425
f 244//438 254//438 245//438
f 281//425 98//425 275//425
f 34//435 98//435 281//435
f 98//425 280//425 223//425
f 266//439 115//439 236//439
f 278//440 282//440 276//440
f 274//441 185//441 75//441
f 280//442 229//442 223//442
f 269//443 255//443 224//443
f 283//444 228//444 229//444
f 259//445 66//445 181//445
f 262//446 105//446 115//446
f 156//447 284//447 257//447
f 285//448 286//448 287//448
f 285//449 272//449 286//449
f 283//450 288//450 228//450
f 237//451 135//451 74//451
f 128//452 76//452 80//452
f 289//453 283//453 229//453
f 287//454 282//454 278//454
f 254//455 249//455 255//455
f 115//456 114//456 236//456
f 66//457 65//457 39//457
f 66//458 39//458 181//458
f 289//459 229//459 280//459
f 279//460 287//460 278//460
f 290//461 288//461 283//461
f 160//462 157//462 265//462
f 230//463 287//463 279//463
f 230//464 285//464 287//464
f 2//465 272//465 285//465
f 28//466 128//466 80//466
f 39//467 182//467 181//467
f 265//468 248//468 246//468
f 268//469 250//469 254//469
f 291//470 283//470 289//470
f 230//471 2//471 285//471
f 77//472 88//472 48//472
f 292//473 283//473 291//473
f 292//474 290//474 283//474
f 246//475 248//475 268//475
f 201//476 242//476 90//476
f 100//477 230//477 279//477
f 173//478 246//478 180//478
f 277//479 289//479 280//479
f 98//480 100//480 279//480
f 180//481 264//481 244//481
f 291//482 289//482 277//482
f 293//483 290//483 292//483
f 201//484 217//484 242//484
f 265//485 157//485 248//485
f 179//486 246//486 173//486
f 294//487 292//487 291//487
f 243//488 110//488 109//488
f 156//489 295//489 284//489
f 294//490 293//490 292//490
f 70//491 274//491 237//491
f 29//492 112//492 202//492
f 24//493 295//493 156//493
f 246//494 264//494 180//494
f 254//495 256//495 245//495
f 79//496 48//496 161//496
f 248//497 250//497 268//497
f 276//498 291//498 277//498
f 242//499 269//499 243//499
f 269//500 110//500 243//500
f 294//501 291//501 296//501
f 35//502 34//502 281//502
f 35//503 281//503 55//503
f 257//504 261//504 249//504
f 245//505 256//505 242//505
f 72//506 55//506 281//506
f 296//507 291//507 276//507
f 275//508 72//508 281//508
f 242//509 256//509 269//509
f 73//510 78//510 214//510
f 79//511 77//511 48//511
f 274//512 82//512 185//512
f 242//513 109//513 90//513
f 284//514 295//514 259//514
f 249//515 253//515 255//515
f 297//516 72//516 275//516
f 284//517 259//517 257//517
f 72//518 297//518 37//518
f 237//519 75//519 135//519
f 250//520 249//520 254//520
f 286//521 293//521 294//521
f 157//522 257//522 248//522
f 246//523 268//523 264//523
f 24//524 61//524 295//524
f 274//525 75//525 237//525
f 261//526 252//526 249//526
f 297//527 275//527 190//527
f 61//528 259//528 295//528
f 38//529 37//529 297//529
f 257//530 259//530 261//530
f 38//531 297//531 190//531
f 298//532 296//532 276//532
f 299//533 294//533 296//533
f 300//534 301//534 132//534
f 300//535 132//535 125//535
f 298//536 299//536 296//536
f 132//537 235//537 114//537
f 302//538 125//538 124//538
f 3//539 235//539 301//539
f 182//540 39//540 38//540
f 125//541 302//541 300//541
f 299//542 286//542 294//542
f 301//543 235//543 132//543
f 125//544 132//544 126//544
f 282//545 298//545 276//545
f 301//546 271//546 3//546
f 132//547 114//547 116//547
f 78//548 161//548 214//548
f 271//549 301//549 300//549
f 287//550 286//550 299//550
f 293//551 270//551 303//551
f 287//552 299//552 298//552
f 304//553 302//553 251//553
f 288//554 290//554 304//554
f 288//555 219//555 228//555
f 287//556 298//556 282//556
f 251//557 302//557 124//557
f 302//558 303//558 300//558
f 29//559 80//559 112//559
f 290//560 293//560 303//560
f 293//561 273//561 270//561
f 304//562 290//562 302//562
f 293//563 286//563 273//563
f 290//564 303//564 302//564
f 219//565 288//565 304//565
f 303//566 270//566 300//566
f 300//567 270//567 271//567
f 79//568 161//568 78//568
f 304//569 251//569 219//569
f 286//570 272//570 273//570
usemtl Material.004
f 310//571 305//571 306//571
f 305//572 307//572 306//572
f 305//573 308//573 307//573
f 312//574 308//574 305//574
f 311//575 305//575 309//575
f 309//576 305//576 310//576
f 311//577 312//577 305//577
f 312//578 313//578 308//578
f 311//579 313//579 312//579
f 313//580 314//580 308//580
f 315//581 314//581 313//581
f 316//582 315//582 313//582
f 311//583 316//583 313//583
f 318//584 316//584 317//584
f 316//585 311//585 317//585
f 316//586 320//586 315//586
f 318//587 319//587 316//587
f 319//588 320//588 316//588
f 321//589 323//589 320//589
f 321//590 320//590 322//590
f 322//591 320//591 319//591
f 320//592 323//592 315//592
f 321//593 324//593 323//593
f 324//594 325//594 323//594
f 315//595 323//595 325//595
f 328//596 325//596 326//596
f 325//597 327//597 326//597
f 327//598 325//598 329//598
f 328//599 315//599 325//599
f 324//600 329//600 325//600
f 329//601 330//601 327//601
f 331//602 330//602 329//602
f 331//603 329//603 332//603
f 332//604 329//604 324//604
f 333//605 331//605 332//605
f 333//606 332//606 334//606
f 335//607 334//607 332//607
f 332//608 324//608 335//608
f 335//609 336//609 334//609
f 336//610 335//610 321//610
f 335//611 324//611 321//611
f 337//612 336//612 321//612
f 334//613 336//613 337//613
f 339//614 337//614 338//614
f 338//615 337//615 321//615
f 334//616 337//616 339//616
f 340//617 339//617 342//617
f 340//618 341//618 339//618
f 341//619 334//619 339//619
f 338//620 342//620 339//620
f 345//621 343//621 342//621
f 343//622 344//622 342//622
f 344//623 340//623 342//623
f 338//624 345//624 342//624
f 345//625 346//625 343//625
f 346//626 345//626 347//626
f 345//627 338//627 347//627
f 346//628 347//628 350//628
f 350//629 347//629 348//629
f 348//630 347//630 349//630
f 347//631 351//631 349//631
f 338//632 321//632 347//632
f 347//633 352//633 351//633
f 352//634 353//634 356//634
f 352//635 354//635 353//635
f 352//636 355//636 354//636
f 352//637 321//637 355//637
f 352//638 356//638 351//638
f 356//639 359//639 351//639
f 358//640 356//640 353//640
f 356//641 357//641 359//641
f 357//642 356//642 358//642
f 351//643 359//643 360//643
f 359//644 361//644 360//644
f 357//645 362//645 359//645
f 362//646 361//646 359//646
f 361//647 362//647 363//647
f 362//648 364//648 363//648
f 357//649 364//649 362//649
f 364//650 365//650 369//650
f 365//651 364//651 366//651
f 366//652 364//652 368//652
f 364//653 369//653 363//653
f 367//654 364//654 357//654
f 367//655 368//655 364//655
f 369//656 370//656 363//656
f 369//657 371//657 370//657
f 369//658 372//658 371//658
f 373//659 372//659 369//659
f 373//660 369//660 365//660
f 376//661 374//661 373//661
f 374//662 375//662 373//662
f 377//663 373//663 375//663
f 368//664 376//664 373//664
f 366//665 368//665 373//665
f 373//666 365//666 366//666
f 372//667 373//667 377//667
f 377//668 375//668 378//668
f 372//669 377//669 378//669
f 382//670 378//670 379//670
f 378//671 380//671 379//671
f 378//672 375//672 380//672
f 372//673 378//673 381//673
f 381//674 378//674 382//674
f 379//675 383//675 382//675
f 382//676 383//676 384//676
f 382//677 384//677 385//677
f 385//678 381//678 382//678
f 385//679 386//679 389//679
f 385//680 384//680 386//680
f 385//681 389//681 387//681
f 387//682 388//682 385//682
f 385//683 388//683 390//683
f 385//684 390//684 381//684
f 390//685 391//685 374//685
f 390//686 368//686 391//686
f 392//687 368//687 390//687
f 392//688 390//688 393//688
f 390//689 374//689 381//689
f 390//690 388//690 393//690
f 392//691 393//691 370//691
f 394//692 370//692 393//692
f 395//693 393//693 388//693
f 395//694 394//694 393//694
f 396//695 398//695 395//695
f 395//696 397//696 396//696
f 395//697 388//697 397//697
f 398//698 394//698 395//698
f 396//699 399//699 398//699
f 394//700 398//700 400//700
f 394//701 400//701 401//701
f 401//702 400//702 402//702
f 401//703 402//703 403//703
f 402//704 404//704 403//704
f 405//705 404//705 407//705
f 405//706 406//706 404//706
f 363//707 404//707 406//707
f 407//708 404//708 408//708
f 363//709 370//709 404//709
f 409//710 407//710 408//710
f 409//711 408//711 410//711
f 408//712 411//712 410//712
f 411//713 414//713 412//713
f 412//714 413//714 411//714
f 411//715 413//715 410//715
f 411//716 415//716 414//716
f 415//717 411//717 416//717
f 417//718 415//718 416//718
f 416//719 418//719 417//719
f 416//720 419//720 418//720
f 419//721 416//721 420//721
f 419//722 420//722 421//722
f 420//723 422//723 421//723
f 420//724 423//724 422//724
f 423//725 420//725 424//725
f 424//726 425//726 423//726
f 424//727 426//727 425//727
f 424//728 427//728 426//728
f 427//729 428//729 426//729
f 428//730 427//730 429//730
f 429//731 427//731 430//731
f 430//732 427//732 431//732
f 430//733 431//733 432//733
f 432//734 431//734 433//734
f 432//735 433//735 434//735
f 434//736 433//736 435//736
f 433//737 399//737 435//737
f 435//738 436//738 434//738
f 436//739 435//739 397//739
f 396//740 397//740 435//740
f 435//741 399//741 396//741
f 434//742 436//742 437//742
f 436//743 438//743 437//743
f 438//744 436//744 387//744
f 436//745 397//745 387//745
f 387//746 389//746 438//746
f 389//747 437//747 438//747
f 389//748 439//748 437//748
f 437//749 439//749 440//749
f 432//750 437//750 440//750
f 432//751 434//751 437//751
f 440//752 439//752 441//752
f 440//753 441//753 442//753
f 430//754 440//754 442//754
f 440//755 430//755 432//755
f 441//756 326//756 442//756
f 430//757 442//757 443//757
f 442//758 327//758 443//758
f 326//759 327//759 442//759
f 430//760 443//760 429//760
f 429//761 443//761 428//761
f 443//762 330//762 428//762
f 327//763 330//763 443//763
f 439//764 444//764 441//764
f 328//765 441//765 444//765
f 328//766 326//766 441//766
f 445//767 444//767 389//767
f 445//768 309//768 444//768
f 309//769 446//769 444//769
f 389//770 444//770 439//770
f 314//771 444//771 446//771
f 328//772 444//772 314//772
f 447//773 446//773 309//773
f 446//774 447//774 308//774
f 446//775 308//775 314//775
f 309//776 448//776 447//776
f 307//777 447//777 448//777
f 308//778 447//778 307//778
f 449//779 448//779 310//779
f 449//780 380//780 448//780
f 380//781 450//781 448//781
f 448//782 309//782 310//782
f 307//783 448//783 450//783
f 450//784 375//784 307//784
f 380//785 375//785 450//785
f 379//786 380//786 449//786
f 449//787 451//787 379//787
f 449//788 452//788 451//788
f 386//789 449//789 445//789
f 386//790 452//790 449//790
f 449//791 310//791 445//791
f 386//792 384//792 452//792
f 452//793 455//793 451//793
f 452//794 384//794 453//794
f 453//795 454//795 452//795
f 454//796 455//796 452//796
f 445//797 455//797 456//797
f 456//798 455//798 311//798
f 317//799 311//799 455//799
f 306//800 455//800 445//800
f 451//801 455//801 306//801
f 454//802 318//802 455//802
f 318//803 317//803 455//803
f 456//804 311//804 309//804
f 456//805 309//805 445//805
f 457//806 454//806 453//806
f 457//807 318//807 454//807
f 453//808 458//808 457//808
f 458//809 459//809 457//809
f 459//810 319//810 457//810
f 457//811 319//811 318//811
f 321//812 459//812 355//812
f 321//813 322//813 459//813
f 459//814 322//814 319//814
f 458//815 355//815 459//815
f 458//816 354//816 355//816
f 458//817 460//817 354//817
f 458//818 461//818 460//818
f 458//819 453//819 461//819
f 453//820 384//820 461//820
f 460//821 461//821 462//821
f 461//822 463//822 462//822
f 384//823 391//823 461//823
f 461//824 391//824 463//824
f 463//825 391//825 368//825
f 462//826 463//826 464//826
f 463//827 368//827 464//827
f 462//828 464//828 367//828
f 367//829 464//829 368//829
f 460//830 462//830 354//830
f 462//831 358//831 354//831
f 462//832 465//832 358//832
f 462//833 367//833 465//833
f 358//834 465//834 357//834
f 465//835 367//835 357//835
f 379//836 451//836 383//836
f 383//837 451//837 375//837
f 451//838 307//838 375//838
f 451//839 306//839 307//839
f 310//840 306//840 445//840
f 386//841 445//841 389//841
f 331//842 426//842 428//842
f 428//843 330//843 331//843
f 466//844 425//844 426//844
f 331//845 466//845 426//845
f 331//846 333//846 466//846
f 333//847 334//847 466//847
f 467//848 466//848 334//848
f 425//849 466//849 467//849
f 341//850 467//850 334//850
f 468//851 467//851 341//851
f 468//852 425//852 467//852
f 468//853 423//853 425//853
f 468//854 422//854 423//854
f 468//855 341//855 422//855
f 422//856 340//856 421//856
f 341//857 340//857 422//857
f 340//858 419//858 421//858
f 344//859 418//859 419//859
f 344//860 419//860 340//860
f 469//861 417//861 418//861
f 344//862 469//862 418//862
f 469//863 343//863 470//863
f 469//864 344//864 343//864
f 471//865 469//865 470//865
f 469//866 471//866 417//866
f 473//867 471//867 472//867
f 472//868 471//868 470//868
f 417//869 471//869 473//869
f 473//870 415//870 417//870
f 415//871 473//871 474//871
f 472//872 474//872 473//872
f 415//873 474//873 414//873
f 474//874 475//874 414//874
f 474//875 472//875 475//875
f 475//876 476//876 414//876
f 476//877 475//877 477//877
f 475//878 478//878 477//878
f 475//879 470//879 478//879
f 475//880 472//880 470//880
f 350//881 478//881 470//881
f 350//882 477//882 478//882
f 479//883 476//883 477//883
f 479//884 477//884 480//884
f 477//885 350//885 480//885
f 481//886 479//886 480//886
f 481//887 480//887 482//887
f 480//888 348//888 482//888
f 480//889 350//889 348//889
f 348//890 349//890 482//890
f 482//891 349//891 483//891
f 482//892 483//892 485//892
f 484//893 481//893 482//893
f 482//894 485//894 484//894
f 486//895 485//895 483//895
f 484//896 485//896 409//896
f 485//897 486//897 407//897
f 485//898 407//898 409//898
f 486//899 483//899 487//899
f 407//900 486//900 487//900
f 487//901 483//901 360//901
f 360//902 361//902 487//902
f 361//903 405//903 487//903
f 487//904 405//904 407//904
f 481//905 484//905 410//905
f 484//906 409//906 410//906
f 483//907 349//907 360//907
f 413//908 479//908 481//908
f 481//909 410//909 413//909
f 476//910 479//910 412//910
f 479//911 413//911 412//911
f 476//912 412//912 414//912
f 343//913 346//913 470//913
f 470//914 346//914 350//914
f 361//915 406//915 405//915
f 363//916 406//916 361//916
f 401//917 403//917 370//917
f 394//918 401//918 370//918
f 397//919 388//919 387//919
f 371//920 368//920 392//920
f 371//921 392//921 370//921
f 384//922 374//922 391//922
f 384//923 383//923 374//923
f 383//924 375//924 374//924
f 381//925 374//925 376//925
f 381//926 376//926 371//926
f 372//927 381//927 371//927
f 368//928 371//928 376//928
f 360//929 349//929 351//929
f 354//930 358//930 353//930
f 315//931 328//931 314//931
