# Blender v2.90.1 OBJ File: ''
# www.blender.org
mtllib link5.mtl
o Link5
v 0.078312 0.027482 0.006043
v 0.030439 0.027482 -0.088564
v -0.008379 0.027481 -0.058310
v 0.071300 0.027482 0.011465
v 0.089436 0.027481 -0.008036
v 0.069662 -0.000005 -0.080562
v 0.057442 -0.007108 -0.085524
v 0.068758 0.027482 -0.082259
v 0.031490 -0.075030 -0.006219
v 0.020066 -0.073265 -0.009480
v 0.030793 -0.080003 -0.018759
v -0.012165 0.027482 -0.014936
v -0.017751 0.027482 -0.032823
v -0.024277 0.027482 -0.025606
v 0.093896 0.027482 -0.050606
v 0.090637 0.027482 -0.058869
v 0.093896 0.027482 -0.018629
v 0.055121 0.027482 0.018615
v 0.038128 0.027482 0.020522
v 0.096096 0.027482 -0.030225
v -0.035664 0.027482 -0.022171
v 0.084323 0.027482 -0.068848
v -0.001409 0.027482 -0.069342
v 0.094641 -0.003407 -0.028343
v 0.096129 0.027481 -0.038734
v 0.086523 -0.055118 -0.028030
v 0.086945 -0.054877 -0.037904
v 0.091920 -0.028578 -0.030962
v 0.032077 -0.078248 -0.056377
v 0.021078 -0.071153 -0.064048
v 0.032421 -0.073237 -0.066343
v 0.005839 0.027482 0.009950
v 0.055187 -0.055049 0.008963
v 0.071036 -0.027002 0.006827
v 0.060538 -0.026799 0.012657
v 0.069896 -0.054840 -0.070372
v 0.057660 -0.055069 -0.077323
v 0.063888 -0.037797 -0.078379
v 0.014542 -0.074498 -0.050220
v 0.019001 0.027482 -0.084919
v 0.066189 0.003916 0.013601
v 0.058709 0.027481 -0.086798
v 0.092873 -0.011287 -0.046713
v 0.029129 0.027482 0.023031
v 0.017734 0.027482 0.036663
v 0.022761 0.027482 0.028057
v 0.013515 0.027472 0.064764
v 0.021874 -0.079410 -0.041807
v 0.031437 -0.081999 -0.040249
v 0.049441 -0.076915 -0.059835
v 0.038888 -0.081397 -0.048557
v 0.053150 -0.033933 -0.083115
v 0.046395 0.027482 -0.089383
v 0.075006 -0.000012 0.007567
v 0.058179 -0.076925 -0.055002
v 0.057434 -0.073227 -0.063321
v 0.067690 -0.073193 -0.054379
v 0.068336 -0.054894 0.002307
v 0.055832 -0.080565 -0.025418
v 0.047333 -0.082429 -0.041109
v 0.061717 -0.079201 -0.040342
v 0.056238 -0.078175 -0.016133
v 0.066905 -0.073878 -0.015579
v 0.087390 -0.041641 -0.049789
v 0.069423 -0.076035 -0.032600
v 0.075210 -0.071967 -0.041779
v 0.078285 -0.068330 -0.023589
v 0.085705 -0.055049 -0.045492
v 0.080090 -0.014087 0.001020
v 0.044492 -0.071597 0.000401
v 0.045351 -0.078346 -0.011610
v 0.059481 -0.072023 -0.005181
v 0.077129 -0.035166 -0.000172
v 0.043557 -0.073269 -0.067419
v 0.057039 -0.003631 0.016746
v 0.044136 -0.082921 -0.031139
v 0.042679 -0.003527 -0.088337
v 0.089326 0.000169 -0.059297
v 0.076110 -0.028573 -0.071561
v 0.086953 0.015005 -0.004331
v 0.078933 -0.054903 -0.008578
v 0.034768 -0.009788 -0.087370
v 0.025764 -0.017457 -0.084581
v 0.021594 0.012414 -0.085681
v 0.042422 -0.030582 -0.085079
v 0.035665 -0.055009 -0.080032
v 0.015727 -0.055010 -0.072586
v 0.003286 -0.032267 -0.067455
v 0.007847 -0.009794 -0.075964
v 0.008452 -0.055045 -0.066496
v 0.016047 -0.024325 -0.079431
v 0.011306 0.012416 -0.080399
v 0.044492 -0.055430 -0.080159
v 0.000953 0.004895 -0.071061
v 0.082684 -0.054912 -0.054122
v 0.052667 -0.030582 0.014551
v 0.028261 -0.055419 -0.078386
v 0.086337 -0.017052 -0.061262
v -0.007740 -0.020256 -0.054882
v 0.089495 -0.022107 -0.015943
v 0.079549 -0.035958 -0.066125
v 0.083502 -0.041818 -0.010725
v 0.082400 -0.058995 -0.017733
v 0.073574 -0.067840 -0.012657
v 0.020699 -0.078377 -0.023637
v 0.092524 -0.007108 -0.019590
v 0.052410 -0.065218 -0.074189
v 0.065627 -0.063023 -0.069461
v 0.082569 -0.064796 -0.031826
v 0.001272 -0.065203 -0.045277
v 0.002534 -0.055178 -0.058907
v 0.009718 -0.061703 -0.064184
v 0.009686 -0.073272 -0.043767
v 0.045304 -0.067845 -0.073469
v 0.019279 -0.063632 -0.070575
v 0.031110 -0.064882 -0.074696
v 0.056237 -0.067419 0.001846
v 0.038613 -0.065979 0.005863
v 0.049355 -0.060118 0.008627
v 0.039093 -0.059446 0.009616
v 0.082271 -0.064764 -0.040463
v 0.077979 -0.064809 -0.053721
v 0.068599 -0.067422 -0.006208
v -0.005461 0.028398 -0.001258
v 0.080744 -0.003590 -0.071062
v -0.021214 0.028673 -0.018496
v -0.060716 0.079423 0.089383
v 0.013625 0.023912 0.089383
v -0.038332 0.082921 0.089383
v -0.068758 0.075609 0.089383
v -0.088505 0.056110 0.089383
v -0.082440 0.064422 0.089383
v -0.094650 0.041115 0.089383
v -0.096128 0.031619 0.089383
v -0.092931 0.009191 0.089383
v 0.077065 -0.058913 -0.061055
v -0.086062 -0.003897 0.089383
v -0.074859 -0.015550 0.089383
v -0.064796 -0.021723 0.089383
v -0.050749 -0.026195 0.089383
v -0.041233 -0.027032 0.089383
v -0.017669 -0.021722 0.089383
v -0.002594 0.067144 0.089383
v -0.009994 0.073258 0.089383
v 0.003619 0.059827 0.089383
v -0.023140 0.079928 0.089382
v 0.012812 0.038226 0.089383
v -0.007607 -0.015550 0.089383
v -0.000545 -0.009046 0.089383
v 0.012744 0.017336 0.089383
v 0.006777 0.001135 0.089383
v 0.020668 -0.008745 0.024531
v 0.007859 -0.008493 0.033551
v 0.012191 -0.016629 0.022696
v 0.038507 -0.020145 0.017471
v 0.039068 0.008073 0.019971
v 0.023327 0.006919 0.026646
v 0.004491 -0.023310 0.014361
v -0.004108 -0.025188 0.008868
v 0.003084 -0.028165 0.008988
v 0.002084 -0.014694 0.030082
v 0.012263 0.015288 0.058410
v 0.030080 -0.059234 0.008327
v 0.013140 -0.033272 0.009758
v 0.014182 -0.061267 -0.000188
v 0.003182 -0.040143 0.002264
v -0.009938 -0.018504 0.029010
v -0.003471 -0.019213 0.022995
v -0.013280 -0.028389 -0.043113
v -0.017311 -0.019674 -0.035015
v 0.008716 0.005899 0.063573
v 0.011817 -0.068402 -0.008998
v 0.004593 -0.064912 -0.012652
v -0.030846 -0.022604 0.037616
v -0.041876 -0.023711 0.038935
v -0.022265 -0.020699 0.018079
v -0.026575 -0.008322 -0.016884
v -0.023153 0.018491 -0.025697
v -0.020369 -0.003742 -0.026768
v 0.017241 0.008515 0.033754
v 0.017558 -0.024610 0.015119
v -0.010108 -0.051527 -0.021609
v -0.019379 -0.027902 -0.013805
v -0.013118 -0.045616 -0.032594
v 0.014945 0.017782 0.043574
v 0.025077 -0.033827 0.013090
v -0.033802 -0.014843 -0.002757
v -0.035811 -0.006088 -0.011986
v 0.026118 -0.013987 0.020798
v -0.007404 -0.042343 -0.048539
v 0.002224 -0.005031 0.055711
v -0.003394 -0.010709 0.059850
v -0.021186 -0.020861 0.045097
v -0.007625 -0.055864 -0.035906
v -0.006222 -0.015405 0.037224
v -0.011015 -0.016422 0.049723
v -0.007886 -0.021628 0.014928
v 0.002976 -0.008460 0.040032
v -0.021780 -0.021451 -0.005611
v -0.015889 -0.024957 -0.001014
v -0.026969 -0.015694 -0.009482
v -0.031027 0.004450 -0.018577
v 0.010146 0.003458 0.044443
v -0.027458 -0.018134 0.001654
v -0.014877 -0.038011 -0.034768
v -0.003570 -0.061738 -0.024951
v 0.003222 -0.069274 -0.036152
v 0.031507 -0.025308 0.016183
v -0.031477 0.021219 -0.022489
v 0.002273 -0.052412 -0.004074
v -0.011844 -0.034851 -0.006885
v -0.005446 0.051554 -0.001254
v -0.012011 0.038592 -0.013252
v 0.000663 0.046300 0.005965
v 0.027870 -0.069881 -0.000008
v -0.081983 0.041393 -0.001184
v -0.072112 0.046058 -0.009944
v -0.077649 0.030096 -0.009320
v -0.077305 0.055876 0.005487
v -0.072827 0.056867 -0.001356
v -0.022126 -0.019321 -0.019567
v -0.051993 -0.016324 0.005474
v -0.060521 -0.009001 -0.003175
v -0.075049 0.003572 -0.003171
v -0.057254 -0.000765 -0.012101
v -0.046443 0.006113 -0.017558
v -0.073798 -0.004478 0.007065
v -0.071265 -0.004047 0.000849
v -0.083087 0.010349 0.004887
v -0.067212 0.065219 0.004813
v -0.060816 0.057339 -0.010343
v 0.048651 0.000306 0.018909
v -0.006008 -0.052439 -0.013412
v -0.068694 0.016597 -0.014055
v -0.078355 0.018085 -0.007401
v -0.054382 0.067567 -0.003176
v -0.086389 0.020015 0.006545
v -0.046614 0.073295 0.005613
v -0.081909 0.028633 -0.004653
v -0.047584 0.063577 -0.009613
v -0.085661 0.032984 0.002780
v -0.040446 0.070137 -0.002463
v -0.055262 0.054723 -0.013776
v -0.062871 -0.011973 0.004968
v -0.032025 0.062897 -0.009644
v -0.051647 -0.007032 -0.009276
v -0.082601 0.047900 0.006775
v -0.060458 0.017568 -0.017816
v -0.065833 0.030767 -0.016598
v -0.053811 0.028352 -0.020601
v -0.046443 0.046999 -0.018596
v -0.059824 0.040909 -0.017505
v -0.030653 0.045465 -0.018349
v -0.035938 0.056019 -0.014726
v -0.021313 0.039327 -0.017384
v -0.022149 0.058014 -0.010095
v -0.015614 0.065863 0.006011
v -0.004509 0.055016 0.005490
v -0.014221 0.058782 -0.004277
v -0.036009 0.072694 0.003618
v -0.026087 0.071159 0.006111
v -0.027030 0.077233 0.035764
v -0.079550 0.061900 0.035136
v -0.082724 0.057042 0.031664
v -0.091783 0.007158 0.072357
v -0.088379 0.004670 0.046090
v -0.085546 -0.002843 0.060755
v -0.083751 0.062017 0.068096
v -0.089361 0.053819 0.071445
v -0.036921 0.081096 0.052670
v -0.026932 0.080598 0.069332
v -0.052118 -0.023884 0.049749
v -0.042369 -0.026455 0.067960
v -0.048134 0.082444 0.079131
v 0.003311 0.053501 0.036282
v -0.043943 0.077936 0.027787
v 0.004225 0.058050 0.068904
v -0.004007 0.063257 0.035932
v -0.087090 0.007864 0.028085
v 0.090133 0.007824 -0.010471
v -0.023984 -0.023896 0.072337
v -0.072649 0.071137 0.053564
v -0.095003 0.017441 0.075485
v -0.070001 0.069597 0.031330
v -0.091691 0.019492 0.035135
v -0.058197 -0.020445 0.036104
v -0.008832 0.071521 0.064983
v -0.015610 0.073517 0.043222
v -0.058401 -0.024038 0.075318
v -0.095036 0.023605 0.060750
v -0.092927 0.027131 0.038957
v -0.066294 -0.018211 0.045772
v -0.016367 0.076520 0.069488
v -0.064316 0.073644 0.035087
v 0.010350 0.037664 0.045140
v -0.065352 -0.014069 0.019081
v 0.009260 0.046644 0.058862
v -0.094971 0.032520 0.059982
v -0.062706 0.077518 0.060882
v -0.076702 -0.011405 0.049858
v -0.055131 0.074112 0.017548
v -0.080522 -0.005580 0.038708
v -0.053609 0.079893 0.053471
v -0.089727 0.037510 0.024232
v -0.088044 0.048589 0.034973
v -0.080161 -0.010094 0.068098
v 0.001869 -0.039239 0.015437
v 0.012102 -0.038055 0.020832
v 0.013578 -0.043337 0.019803
v 0.002950 -0.043310 0.014526
v -0.000152 -0.038524 0.018551
v -0.007017 -0.038811 0.012969
v -0.004459 -0.039299 0.010390
v -0.005839 -0.042757 0.011985
v -0.002866 -0.044630 0.008079
v -0.011259 -0.043323 -0.000232
v -0.012601 -0.038323 0.000935
v 0.026745 -0.035667 0.014749
v 0.012728 -0.035904 0.010465
v 0.004259 -0.036013 0.006867
v 0.023463 -0.026608 0.016744
v 0.006816 -0.030241 0.011198
v -0.005291 -0.030319 0.005527
v 0.001845 -0.026389 0.013252
v -0.009413 -0.026439 0.007835
v 0.014698 -0.025498 0.015075
v -0.009151 -0.025497 0.007190
v -0.018199 -0.026307 -0.002297
v -0.022013 -0.025984 -0.014230
v -0.021019 -0.025628 -0.016967
v -0.012561 -0.032824 -0.043680
v -0.020893 -0.027080 -0.024414
v -0.012988 -0.033166 -0.045132
v 0.000088 -0.035541 -0.064720
v 0.002410 -0.035280 -0.065884
v 0.003150 -0.037099 -0.070852
v 0.011179 -0.037078 -0.077791
v 0.024181 -0.035110 -0.081560
v 0.022401 -0.036959 -0.083719
v 0.029192 -0.037025 -0.085818
v 0.037606 -0.036906 -0.087082
v 0.039482 -0.035229 -0.084479
v 0.025211 -0.044802 -0.079991
v 0.053079 -0.037092 -0.085891
v 0.056085 -0.035216 -0.082280
v 0.063116 -0.036929 -0.082480
v 0.071089 -0.037096 -0.077989
v 0.080953 -0.037021 -0.069185
v 0.088543 -0.035199 -0.050612
v 0.084478 -0.037024 -0.064641
v 0.088351 -0.037017 -0.058122
v 0.092322 -0.037058 -0.047420
v 0.091215 -0.035047 -0.029884
v 0.088498 -0.035199 -0.018475
v 0.090837 -0.037130 -0.016906
v 0.086259 -0.036884 -0.007371
v 0.075168 -0.035210 0.002036
v 0.066499 -0.037095 0.011574
v 0.058718 -0.034924 0.013333
v 0.078647 -0.037038 0.002426
v 0.071158 -0.056469 0.003863
v 0.081698 -0.055492 -0.006998
v 0.088033 -0.056920 -0.021435
v 0.077462 -0.063533 -0.005805
v 0.081089 -0.063932 -0.011362
v 0.083663 -0.064296 -0.016909
v 0.077295 -0.072950 -0.027583
v 0.086834 -0.065035 -0.032186
v 0.075029 -0.072957 -0.020292
v 0.057891 -0.072981 -0.063940
v 0.054856 -0.072977 -0.003809
v 0.068304 -0.072953 -0.009838
v 0.058154 -0.072936 -0.002022
v 0.065451 -0.062295 0.005340
v 0.050835 -0.072957 0.000811
v 0.057072 -0.061777 0.009327
v 0.066737 -0.056379 0.006831
v 0.059295 -0.055262 0.010801
v 0.059587 -0.036912 0.014936
v 0.048115 -0.037141 0.019011
v 0.053356 -0.054478 0.013150
v 0.037304 -0.042261 0.020166
v 0.042104 -0.060762 0.013231
v 0.037339 -0.072946 0.001883
v 0.035899 -0.060517 0.013759
v 0.027771 -0.044830 0.020120
v 0.025508 -0.042941 0.022629
v 0.025607 -0.059985 0.013467
v 0.025470 -0.072953 -0.001446
v 0.020680 -0.059396 0.012900
v 0.014829 -0.059389 0.010635
v 0.013575 -0.067119 0.000013
v 0.004373 -0.059169 0.003346
v 0.004867 -0.044644 0.014069
v -0.001704 -0.059309 -0.003809
v 0.015304 -0.072956 -0.008640
v 0.009884 -0.072957 -0.015531
v -0.001247 -0.064434 -0.013657
v 0.004542 -0.072954 -0.035626
v 0.000112 -0.068801 -0.026734
v -0.004695 -0.059182 -0.008497
v -0.008113 -0.059590 -0.017365
v -0.009283 -0.059703 -0.025678
v -0.014811 -0.043308 -0.007368
v -0.017739 -0.043312 -0.018839
v -0.016270 -0.044924 -0.019690
v -0.015637 -0.045115 -0.029468
v -0.018526 -0.042817 -0.031592
v -0.012734 -0.042318 -0.043061
v -0.008391 -0.060063 -0.034872
v -0.006656 -0.060471 -0.041569
v 0.007621 -0.072949 -0.049165
v -0.003949 -0.060990 -0.048948
v -0.007719 -0.054471 -0.046091
v 0.001946 -0.061913 -0.059676
v 0.001203 -0.055274 -0.062622
v -0.010101 -0.037257 -0.051811
v -0.018664 -0.035732 -0.026585
v -0.025497 -0.037379 -0.023699
v -0.004552 -0.037254 -0.061176
v -0.018953 -0.035588 -0.021700
v -0.020139 -0.036385 -0.017775
v -0.022730 -0.036951 -0.016420
v -0.026563 -0.037566 -0.014606
v -0.023618 -0.042419 -0.023594
v -0.020989 -0.042834 -0.017934
v -0.015557 -0.042493 0.006373
v -0.022718 -0.042543 -0.008887
v -0.022308 -0.037779 -0.001847
v -0.014007 -0.037940 0.011247
v -0.015431 -0.038434 0.001889
v -0.006508 -0.037933 0.018736
v -0.019410 -0.037825 -0.004773
v -0.010102 -0.042592 0.012896
v 0.002296 -0.042524 0.022354
v 0.001316 -0.042801 0.017647
v 0.017684 -0.042487 0.026325
v 0.007917 -0.037511 0.027695
v 0.010395 -0.037569 0.024007
v 0.017030 -0.037329 0.028296
v 0.038449 -0.037262 0.021300
v 0.044353 -0.035617 0.016418
v 0.044026 -0.032940 0.016966
v 0.026552 -0.026878 0.015780
v 0.011621 -0.042838 0.022735
v -0.016451 -0.037351 -0.006140
v -0.018088 -0.042829 -0.006136
v -0.014228 -0.042831 0.001797
v -0.017772 -0.035632 -0.014826
v -0.011615 -0.035887 -0.004581
v -0.013372 -0.035562 -0.043484
v 0.008833 -0.055477 -0.071274
v 0.008767 -0.062551 -0.068090
v 0.015493 -0.056755 -0.075869
v 0.018906 -0.063374 -0.075236
v 0.020218 -0.056492 -0.078558
v 0.025332 -0.063828 -0.077932
v 0.031448 -0.056385 -0.082350
v 0.045732 -0.057010 -0.082983
v 0.033770 -0.064385 -0.079890
v 0.043833 -0.064911 -0.080194
v 0.030913 -0.072939 -0.069828
v 0.008554 -0.072976 -0.042534
v 0.020054 -0.072940 -0.064548
v 0.049559 -0.072945 -0.070385
v 0.059911 -0.072958 -0.066175
v 0.049554 -0.065202 -0.079392
v 0.063664 -0.065763 -0.073903
v 0.070672 -0.065916 -0.068889
v 0.060309 -0.055719 -0.079672
v 0.065832 -0.055497 -0.076938
v 0.072512 -0.057133 -0.071762
v 0.082756 -0.057028 -0.059858
v 0.077519 -0.065971 -0.061554
v 0.071893 -0.072954 -0.054770
v 0.081380 -0.065837 -0.055539
v 0.084493 -0.065640 -0.048311
v 0.075456 -0.072939 -0.047957
v 0.087975 -0.055953 -0.048852
v 0.089707 -0.056841 -0.038728
v 0.092470 -0.044794 -0.036319
v 0.086346 -0.065457 -0.040202
v 0.089467 -0.056529 -0.027617
v 0.093301 -0.037115 -0.026576
v 0.093564 -0.036880 -0.040328
v 0.077959 -0.072951 -0.035930
v 0.052482 -0.055407 -0.082308
v 0.010839 -0.072951 -0.055098
vn -0.0000 1.0000 0.0000
vn 0.0001 1.0000 -0.0000
vn 0.3975 -0.0435 -0.9166
vn -0.2440 -0.8968 0.3691
vn -0.0001 1.0000 0.0001
vn 0.0001 1.0000 0.0002
vn 0.9989 -0.0468 0.0039
vn 0.9801 -0.1952 0.0372
vn 0.0001 1.0000 -0.0001
vn -0.2478 -0.8621 -0.4420
vn 0.4726 -0.2017 0.8579
vn 0.4843 -0.2263 -0.8451
vn -0.3145 -0.8779 -0.3610
vn -0.0000 1.0000 -0.0001
vn 0.4806 -0.1151 0.8693
vn 0.4111 -0.0486 -0.9103
vn 0.9954 -0.0701 -0.0657
vn 0.0001 1.0000 -0.0003
vn -0.0009 -1.0000 -0.0005
vn -0.2194 -0.9483 -0.2293
vn 0.9934 -0.1020 -0.0518
vn -0.0027 -0.9284 -0.3715
vn 0.3679 -0.1096 -0.9234
vn 0.4459 -0.1506 -0.8823
vn 0.0000 1.0000 0.0002
vn -0.0002 1.0000 0.0002
vn 0.5508 -0.0439 0.8335
vn 0.3567 -0.8414 -0.4059
vn 0.6114 -0.0297 0.7907
vn 0.3421 -0.1797 -0.9223
vn 0.5308 -0.1011 0.8415
vn 0.4456 -0.1851 0.8759
vn 0.9818 -0.0444 -0.1847
vn 0.2191 -0.9757 -0.0028
vn 0.3549 -0.9090 0.2185
vn 0.1281 -0.9522 -0.2773
vn 0.9798 -0.1507 -0.1312
vn 0.3685 -0.9010 -0.2289
vn 0.3384 -0.9398 0.0475
vn 0.6260 -0.7782 0.0498
vn 0.4493 -0.8744 -0.1831
vn 0.9789 -0.1645 -0.1214
vn 0.4619 -0.8813 -0.0993
vn 0.9728 -0.1720 -0.1551
vn 0.2052 -0.0435 -0.9777
vn 0.6482 -0.1160 0.7526
vn 0.1590 -0.8558 0.4922
vn 0.6254 -0.1834 0.7585
vn 0.1574 -0.8368 -0.5244
vn 0.1949 -0.8787 0.4359
vn 0.3969 -0.1010 0.9123
vn 0.2247 -0.9532 -0.2023
vn 0.6641 -0.1348 0.7354
vn 0.1914 -0.9814 0.0130
vn 0.2271 -0.8822 -0.4124
vn 0.1742 -0.0540 -0.9832
vn 0.9462 -0.0570 -0.3186
vn 0.1381 -0.9579 -0.2515
vn 0.3923 -0.9035 0.1725
vn 0.3271 -0.8620 0.3873
vn 0.1593 -0.1136 -0.9807
vn 0.1160 -0.9631 0.2428
vn 0.5572 -0.1325 -0.8197
vn 0.0870 -0.9711 0.2221
vn 0.7362 -0.0511 0.6748
vn 0.3503 -0.0346 0.9360
vn 0.6980 -0.2257 0.6796
vn -0.2409 -0.0693 -0.9681
vn -0.1543 -0.1588 -0.9752
vn -0.2206 -0.0568 -0.9737
vn -0.6187 -0.1652 -0.7680
vn -0.6315 -0.1750 -0.7554
vn -0.2933 -0.9146 -0.2784
vn 0.9295 -0.0389 -0.3667
vn 0.7351 -0.0491 0.6762
vn -0.4552 -0.0821 -0.8866
vn 0.2112 -0.2161 -0.9533
vn 0.1425 -0.1197 -0.9825
vn -0.5770 0.0018 -0.8168
vn 0.9196 -0.2199 -0.3254
vn -0.4564 -0.0336 -0.8891
vn 0.1215 -0.1831 -0.9756
vn 0.3114 -0.1810 0.9329
vn -0.3628 -0.1733 -0.9156
vn 0.9227 -0.1299 -0.3631
vn -0.0512 -0.0275 -0.9983
vn 0.4042 -0.0048 0.9147
vn -0.1600 -0.1661 -0.9731
vn -0.6177 -0.1651 -0.7689
vn 0.9224 -0.1182 -0.3676
vn -0.4152 -0.0913 -0.9051
vn -0.7839 -0.0743 -0.6164
vn 0.8813 -0.1683 -0.4417
vn 0.7843 0.0279 0.6197
vn 0.8480 -0.1045 0.5196
vn -0.6820 -0.0396 -0.7303
vn 0.8482 -0.1760 -0.4995
vn -0.8467 -0.0482 -0.5299
vn -0.0235 -0.1961 -0.9803
vn -0.6052 0.0712 -0.7929
vn 0.7883 -0.1787 0.5887
vn 0.2881 -0.1241 0.9495
vn 0.8037 -0.1455 0.5770
vn 0.7419 -0.4609 0.4870
vn -0.7598 -0.1451 -0.6338
vn -0.0269 -0.1193 -0.9925
vn 0.7558 -0.5531 0.3504
vn -0.1536 -0.9815 0.1148
vn 0.9752 -0.1245 0.1832
vn 0.3459 -0.6719 -0.6550
vn 0.8352 -0.5049 0.2178
vn 0.4700 -0.3360 -0.8162
vn -0.3036 -0.0041 -0.9528
vn -0.0883 -0.0421 -0.9952
vn 0.3663 -0.4423 -0.8187
vn -0.5179 -0.0892 -0.8508
vn -0.2048 -0.1708 -0.9638
vn -0.4172 -0.1937 -0.8879
vn -0.7594 -0.4885 -0.4297
vn -0.6210 -0.7098 -0.3325
vn 0.2082 -0.7390 -0.6408
vn -0.6210 -0.6729 -0.4020
vn -0.3074 -0.6646 -0.6810
vn 0.1869 -0.7577 -0.6253
vn 0.6738 -0.7382 0.0337
vn 0.2015 -0.7741 0.6002
vn -0.0324 -0.9943 -0.1011
vn -0.2629 -0.7025 -0.6614
vn -0.5973 -0.3620 -0.7157
vn -0.1778 -0.9832 0.0401
vn -0.1772 -0.4034 -0.8977
vn 0.8808 -0.4340 0.1892
vn 0.1256 -0.6208 0.7738
vn 0.0506 -0.5003 0.8644
vn -0.5637 -0.4006 -0.7224
vn 0.7164 -0.6972 -0.0273
vn 0.1292 -0.6066 0.7844
vn -0.4013 -0.3615 -0.8416
vn 0.9211 -0.3881 0.0300
vn -0.0882 -0.7112 -0.6975
vn -0.5718 -0.6937 -0.4380
vn -0.0354 -0.4758 -0.8788
vn 0.2044 -0.3838 -0.9005
vn -0.0213 -0.4677 -0.8836
vn 0.0840 -0.4684 -0.8795
vn 0.7157 -0.6596 -0.2294
vn 0.9367 -0.3485 -0.0336
vn -0.5159 -0.6286 -0.5820
vn 0.3407 -0.4469 0.8271
vn 0.8744 -0.4669 -0.1323
vn -0.0675 -0.7331 -0.6767
vn 0.6147 -0.7312 -0.2957
vn 0.5759 -0.1724 -0.7992
vn 0.4122 -0.4278 0.8044
vn 0.8530 -0.4437 -0.2747
vn -0.7380 -0.3422 -0.5816
vn 0.4417 -0.7741 0.4535
vn -0.3372 -0.4284 -0.8383
vn 0.9588 -0.1698 0.2279
vn 0.4068 -0.6667 0.6245
vn 0.2705 0.9426 -0.1957
vn 0.8550 -0.4189 -0.3059
vn 0.6284 -0.1012 -0.7713
vn 0.4766 -0.4873 0.7317
vn 0.2499 -0.5277 -0.8118
vn -0.0000 0.0000 1.0000
vn 0.5420 -0.6207 -0.5665
vn 0.1254 -0.2086 0.9699
vn -0.1787 -0.9567 -0.2296
vn 0.8108 -0.4027 -0.4247
vn 0.4947 -0.7549 0.4306
vn 0.6510 -0.4173 0.6341
vn -0.0302 -0.9978 -0.0589
vn 0.4703 -0.7006 -0.5367
vn 0.6127 -0.7677 0.1879
vn -0.0186 -0.8722 0.4888
vn 0.0002 -0.0001 1.0000
vn -0.2669 -0.9630 0.0375
vn 0.5951 -0.6262 -0.5037
vn 0.4819 -0.8412 0.2453
vn 0.6877 -0.4616 0.5604
vn 0.6316 -0.4032 -0.6622
vn -0.0770 -0.9254 0.3712
vn -0.4253 -0.8925 -0.1505
vn 0.4414 -0.6246 0.6443
vn 0.1283 -0.0901 0.9876
vn 0.6192 -0.0368 0.7844
vn -0.2893 -0.6713 0.6824
vn 0.3426 -0.6811 0.6472
vn 0.9952 -0.0975 -0.0090
vn -0.4156 -0.3182 0.8521
vn -0.4205 -0.3176 0.8499
vn 0.9745 -0.0324 0.2220
vn 0.2497 -0.8932 0.3739
vn 0.3446 -0.0416 0.9378
vn -0.0149 -0.9056 -0.4238
vn -0.9087 -0.0335 -0.4162
vn 0.9369 -0.3494 0.0086
vn -0.4942 -0.8544 0.1608
vn 0.0930 -0.9941 -0.0561
vn -0.8280 -0.0769 -0.5555
vn 0.5435 -0.3091 0.7804
vn -0.1115 -0.7227 0.6822
vn -0.9241 -0.3789 0.0493
vn 0.1992 -0.8462 0.4942
vn 0.9735 -0.1758 0.1461
vn -0.2716 -0.2288 0.9348
vn -0.4618 -0.6915 -0.5555
vn 0.2005 -0.4215 0.8844
vn -0.8160 -0.1710 -0.5522
vn -0.1307 -0.6617 0.7383
vn 0.9734 -0.1763 0.1463
vn 0.7005 -0.7131 -0.0274
vn 0.1876 -0.9822 -0.0134
vn -0.8613 -0.3393 -0.3783
vn 0.7185 -0.2114 0.6627
vn 0.0831 -0.8685 0.4887
vn 0.4780 -0.8711 0.1124
vn -0.7554 -0.0632 -0.6522
vn -0.0460 -0.8918 -0.4500
vn -0.0991 -0.8837 0.4573
vn 0.2685 -0.0144 0.9632
vn 0.4853 -0.7923 0.3697
vn -0.6416 -0.0776 0.7631
vn -0.6251 -0.5361 -0.5673
vn 0.3544 -0.9284 0.1117
vn -0.3689 -0.2474 -0.8959
vn 0.9482 -0.2984 0.1090
vn 0.8068 -0.5754 0.1338
vn -0.6634 -0.7243 -0.1878
vn -0.8732 -0.3096 -0.3764
vn 0.9436 -0.3090 0.1186
vn -0.5019 -0.2833 -0.8172
vn 0.4837 -0.7249 0.4905
vn -0.7770 -0.6276 -0.0489
vn 0.7282 -0.6834 0.0508
vn 0.0371 -0.9870 0.1563
vn -0.1772 -0.2150 0.9604
vn 0.9550 -0.0691 0.2885
vn 0.9212 -0.2013 0.3331
vn 0.8186 -0.5517 0.1599
vn -0.1115 -0.7226 0.6822
vn 0.0008 -0.9581 0.2863
vn -0.1113 -0.9337 0.3404
vn 0.2180 -0.5909 0.7768
vn 0.0808 -0.3430 0.9359
vn 0.1868 -0.9823 -0.0134
vn -0.4122 -0.2174 -0.8848
vn -0.0898 -0.4123 0.9066
vn -0.3589 -0.8851 0.2962
vn 0.8592 -0.0993 0.5019
vn -0.2965 -0.9024 0.3126
vn 0.5496 -0.8102 0.2036
vn 0.4906 -0.8634 0.1179
vn -0.0012 -0.9736 0.2282
vn -0.7390 -0.0857 -0.6683
vn 0.6520 -0.5751 0.4942
vn 0.2756 -0.9339 0.2276
vn -0.3316 -0.9289 0.1650
vn 0.9657 -0.1422 0.2171
vn -0.8391 -0.5436 0.0192
vn 0.8566 -0.2600 0.4456
vn -0.5736 -0.3420 0.7443
vn -0.3271 -0.9200 -0.2159
vn -0.9851 -0.1322 -0.1099
vn 0.8248 -0.4589 0.3304
vn 0.7567 -0.0240 0.6533
vn 0.6526 -0.0253 -0.7573
vn 0.8775 -0.0005 -0.4796
vn -0.4582 -0.8856 0.0760
vn -0.3698 -0.0369 -0.9284
vn 0.7053 0.0442 -0.7075
vn -0.7709 -0.2003 -0.6047
vn -0.4165 -0.6486 0.6371
vn -0.6634 -0.7258 -0.1821
vn 0.8951 0.0546 -0.4424
vn 0.7632 -0.0004 -0.6462
vn -0.8464 -0.1588 -0.5082
vn -0.7034 0.2175 -0.6767
vn -0.7745 0.4533 -0.4412
vn -0.2238 -0.5715 0.7895
vn -0.7928 -0.4477 0.4136
vn -0.5727 -0.5335 0.6225
vn -0.9486 -0.3160 -0.0182
vn -0.9559 -0.2601 -0.1361
vn -0.1362 -0.8779 -0.4591
vn -0.4776 -0.5516 -0.6838
vn -0.7060 0.4113 -0.5765
vn -0.0888 -0.2285 -0.9695
vn -0.7546 -0.5574 -0.3462
vn -0.5952 -0.5388 0.5962
vn -0.7788 -0.5358 -0.3263
vn -0.6532 0.6820 -0.3288
vn -0.4419 0.7059 -0.5535
vn -0.8854 -0.2119 -0.4138
vn -0.2859 -0.1429 -0.9475
vn 0.1987 -0.1115 0.9737
vn -0.7293 -0.5998 0.3292
vn -0.4870 -0.4078 -0.7724
vn -0.0967 -0.7932 0.6012
vn -0.5294 0.5060 -0.6809
vn -0.0913 -0.9879 -0.1254
vn -0.0092 -0.9884 -0.1514
vn -0.6423 -0.5112 0.5711
vn -0.5676 -0.3470 -0.7466
vn -0.1349 -0.4861 0.8634
vn 0.0527 -0.2021 0.9780
vn -0.8828 -0.4696 -0.0108
vn -0.8559 -0.3756 -0.3555
vn -0.4711 0.6855 -0.5551
vn -0.7924 -0.3301 -0.5129
vn -0.8590 -0.2136 -0.4653
vn -0.8444 -0.0496 -0.5335
vn -0.3016 -0.4686 0.8303
vn -0.3405 0.8965 -0.2834
vn -0.4728 -0.8810 0.0195
vn -0.7510 -0.5826 0.3108
vn -0.8120 -0.1804 -0.5550
vn -0.9357 0.0030 -0.3527
vn -0.8641 -0.1675 -0.4746
vn -0.9290 -0.0637 -0.3647
vn -0.2732 0.6614 -0.6985
vn -0.9361 -0.1286 -0.3275
vn -0.5629 -0.5797 0.5892
vn -0.8917 -0.0443 -0.4504
vn 0.2299 -0.0442 0.9722
vn 0.9281 -0.1989 0.3148
vn -0.7739 -0.5751 0.2652
vn -0.9064 -0.0701 -0.4165
vn -0.5746 -0.0961 -0.8128
vn -0.1395 0.8815 -0.4512
vn -0.5541 -0.8121 0.1831
vn -0.7264 -0.0666 -0.6840
vn -0.4765 -0.4333 0.7650
vn -0.0930 -0.7423 0.6635
vn -0.1139 0.7861 -0.6075
vn 0.9815 -0.0441 0.1862
vn -0.9307 -0.3555 -0.0856
vn -0.1730 -0.8292 -0.5315
vn -0.5208 -0.3610 0.7736
vn -0.2233 0.5666 -0.7931
vn -0.8513 0.1331 -0.5076
vn -0.6700 -0.4433 0.5954
vn -0.2631 -0.4071 0.8747
vn -0.3455 -0.5329 0.7724
vn -0.3232 -0.8551 -0.4054
vn -0.0870 -0.2813 0.9557
vn -0.3894 -0.7178 0.5772
vn 0.6879 -0.1944 -0.6993
vn -0.7850 -0.5976 0.1635
vn 0.0301 0.7213 -0.6919
vn -0.2714 -0.4026 0.8742
vn -0.0724 -0.7314 -0.6781
vn -0.1742 -0.8344 -0.5228
vn -0.9196 0.2661 -0.2890
vn -0.4998 -0.8216 0.2743
vn -0.7537 0.1683 -0.6352
vn -0.1432 -0.2176 0.9655
vn -0.8295 -0.3740 -0.4148
vn -0.5051 -0.7535 -0.4208
vn -0.1177 -0.4956 -0.8606
vn -0.3556 -0.8427 0.4042
vn -0.6911 -0.5563 0.4614
vn -0.9385 0.0117 -0.3451
vn -0.5786 -0.7628 -0.2887
vn -0.7829 0.4505 -0.4291
vn -0.5814 -0.7932 0.1812
vn -0.8316 -0.3707 -0.4135
vn -0.1196 -0.4949 -0.8607
vn -0.5069 -0.5855 -0.6326
vn 0.6469 -0.0202 -0.7623
vn -0.3439 -0.6240 -0.7017
vn -0.3586 -0.3344 -0.8716
vn -0.7937 -0.1792 -0.5813
vn -0.5218 -0.0475 -0.8517
vn 0.9344 -0.1843 0.3047
vn -0.7735 -0.6236 -0.1129
vn -0.0788 0.1373 -0.9874
vn -0.8319 -0.4134 0.3701
vn -0.4787 0.1321 -0.8680
vn 0.0346 0.1985 -0.9795
vn 0.3780 0.1336 -0.9161
vn -0.4061 -0.0813 -0.9102
vn -0.2512 -0.3278 -0.9107
vn -0.3773 0.3554 -0.8552
vn 0.0239 0.5852 -0.8105
vn -0.2726 -0.8127 0.5149
vn 0.4104 0.0985 -0.9066
vn 0.2332 0.1395 -0.9624
vn -0.1549 0.1660 -0.9739
vn -0.0750 0.4769 -0.8758
vn -0.1101 -0.4907 -0.8644
vn 0.0483 0.3458 -0.9370
vn 0.3893 0.4674 -0.7937
vn 0.1696 0.1039 -0.9800
vn 0.2494 0.3616 -0.8984
vn -0.0745 0.4653 -0.8820
vn 0.4033 0.3481 -0.8463
vn -0.3237 -0.0446 -0.9451
vn 0.6384 0.6717 -0.3759
vn 0.1114 -0.1246 0.9859
vn 0.2095 0.5011 -0.8396
vn -0.1526 -0.0519 -0.9869
vn 0.3440 0.7480 -0.5675
vn 0.2512 0.8131 -0.5251
vn -0.0938 -0.1944 -0.9764
vn 0.5451 0.4040 -0.7346
vn -0.0182 0.9264 -0.3762
vn -0.2980 0.0916 -0.9501
vn 0.8135 0.4636 -0.3510
vn 0.5379 0.3284 -0.7764
vn 0.3908 0.7821 -0.4854
vn 0.1116 -0.0158 0.9936
vn 0.3343 0.8033 -0.4929
vn 0.6595 0.6276 -0.4138
vn -0.2214 0.3216 -0.9206
vn 0.2670 0.7568 -0.5967
vn -0.1336 -0.1854 -0.9735
vn -0.5194 0.2342 -0.8218
vn -0.3722 0.3421 -0.8628
vn 0.1967 0.9617 -0.1907
vn -0.7571 0.6267 -0.1846
vn 0.7517 -0.1265 -0.6473
vn -0.8808 -0.4683 -0.0698
vn -0.8308 0.5557 -0.0313
vn 0.1236 0.9913 -0.0445
vn -0.0838 -0.9919 -0.0952
vn -0.1009 -0.9775 -0.1853
vn 0.7232 -0.2226 -0.6538
vn -0.8394 0.5349 -0.0967
vn 0.0032 0.9988 -0.0495
vn 0.8487 0.4932 -0.1912
vn 0.1437 0.9759 -0.1645
vn -0.1066 0.9897 -0.0956
vn 0.7619 0.6468 -0.0336
vn -0.8077 0.5893 -0.0168
vn -0.7971 0.5949 -0.1037
vn -0.8854 -0.4647 -0.0042
vn -0.0354 -0.1964 0.9799
vn 0.0166 0.9783 -0.2067
vn 0.7973 0.5943 -0.1052
vn 0.7910 0.5871 -0.1720
vn -0.1595 -0.9730 -0.1666
vn -0.9382 -0.2875 -0.1927
vn 0.0885 -0.9918 -0.0922
vn 0.7168 0.6938 -0.0694
vn 0.9449 -0.0465 0.3239
vn -0.0876 -0.9959 -0.0222
vn 0.1458 -0.9887 -0.0344
vn -0.7011 0.7071 -0.0919
vn -0.9564 -0.2904 -0.0298
vn -0.9578 -0.2699 -0.0986
vn 0.0815 -0.1942 0.9776
vn 0.1531 -0.9859 -0.0669
vn -0.1630 -0.9853 -0.0518
vn 0.2196 -0.9746 0.0429
vn 0.2390 -0.9674 -0.0832
vn -0.9638 -0.2422 -0.1120
vn 0.4213 -0.9051 -0.0576
vn -0.6617 0.7234 -0.1971
vn 0.5210 -0.8493 -0.0847
vn -0.9439 -0.3167 -0.0936
vn -0.9471 -0.2653 -0.1805
vn 0.4713 -0.8817 -0.0211
vn 0.9169 -0.0906 0.3888
vn -0.1759 -0.9703 -0.1662
vn -0.6671 0.7437 -0.0429
vn 0.7382 0.6711 -0.0683
vn -0.6738 0.7144 -0.1888
vn 0.6305 -0.7753 -0.0371
vn 0.6794 0.7053 -0.2021
vn 0.6367 0.7707 -0.0245
vn 0.6772 -0.7354 -0.0239
vn 0.8119 -0.5838 -0.0029
vn 0.5946 0.7875 -0.1621
vn 0.8677 -0.4963 -0.0264
vn -0.1831 -0.9818 -0.0509
vn 0.6143 0.7799 -0.1198
vn 0.9383 -0.3456 0.0067
vn 0.8446 -0.0322 -0.5344
vn 0.9909 -0.1326 -0.0236
vn -0.6531 0.7462 -0.1294
vn -0.9706 -0.2227 -0.0910
vn -0.9808 -0.0671 -0.1831
vn -0.3513 -0.9330 -0.0786
vn 0.5382 0.8421 -0.0343
vn 0.9215 -0.0154 0.3880
vn -0.4817 0.8551 -0.1919
vn -0.3478 -0.9331 -0.0911
vn 0.9984 0.0567 0.0038
vn 0.9895 0.0405 -0.1386
vn -0.6327 0.7739 -0.0279
vn 0.5162 0.8525 -0.0826
vn -0.3527 -0.9153 -0.1946
vn 0.3638 0.9266 -0.0955
vn -0.9880 -0.1408 0.0637
vn -0.3561 -0.9132 -0.1982
vn 0.4525 0.8918 0.0013
vn 0.9782 0.1990 -0.0590
vn -0.4475 -0.8925 -0.0565
vn 0.3603 0.9321 -0.0370
vn -0.5215 0.8447 -0.1206
vn 0.9782 0.2006 -0.0536
vn 0.4106 0.8931 -0.1838
vn 0.8732 -0.0293 0.4865
vn 0.8169 -0.1205 0.5640
vn -0.9882 -0.1037 -0.1124
vn 0.0382 -0.0889 0.9953
vn 0.9566 0.2234 -0.1873
vn -0.3034 -0.9527 0.0189
vn 0.3597 0.9283 -0.0941
vn 0.4437 0.8806 -0.1663
vn 0.9317 0.3334 -0.1442
vn -0.9981 -0.0578 -0.0219
vn 0.9321 0.3255 -0.1587
vn -0.4287 -0.8904 -0.1533
vn -0.9953 -0.0010 -0.0965
vn -0.4840 0.8693 -0.1004
vn -0.5807 -0.8011 -0.1448
vn -0.9803 -0.0023 -0.1973
vn 0.9201 0.3916 0.0009
vn 0.7803 -0.1224 -0.6134
vn 0.9120 0.4102 -0.0086
vn -0.5124 0.8572 -0.0514
vn 0.2121 0.9723 -0.0981
vn 0.8795 0.4673 -0.0898
vn 0.1933 0.9811 -0.0038
vn 0.0991 0.9811 -0.1662
vn -0.5222 -0.8513 -0.0506
vn -0.9992 0.0039 -0.0392
vn -0.8653 -0.5002 -0.0340
vn -0.4284 0.9031 -0.0305
vn -0.3378 0.8914 -0.3021
vn -0.4326 0.8784 -0.2031
vn -0.8346 -0.5291 -0.1536
vn 0.8437 -0.1179 0.5236
vn -0.3116 0.9401 -0.1381
vn -0.9809 0.0298 -0.1922
vn -0.3403 0.9328 -0.1189
vn -0.8094 -0.5526 -0.1989
vn -0.8595 0.5007 -0.1028
vn 0.8151 -0.2076 -0.5408
vn 0.8170 -0.0766 -0.5715
vn -0.8313 0.5204 -0.1953
vn -0.5801 -0.7847 -0.2185
vn -0.9842 0.1230 -0.1272
vn -0.9253 0.3792 -0.0042
vn -0.8279 -0.5477 -0.1207
vn -0.2857 0.9573 -0.0440
vn -0.8628 0.4732 -0.1781
vn 0.8147 -0.0527 -0.5774
vn -0.8186 -0.5411 -0.1928
vn -0.7840 -0.6196 -0.0369
vn -0.7469 -0.6590 -0.0884
vn -0.7505 -0.6539 -0.0953
vn -0.9533 0.2921 -0.0763
vn -0.2636 0.9638 -0.0396
vn -0.6407 -0.7484 -0.1715
vn -0.1536 0.9829 0.1011
vn -0.9537 0.2914 -0.0748
vn -0.1637 0.9694 -0.1832
vn 0.8704 -0.2328 0.4337
vn -0.9280 0.3223 -0.1870
vn -0.5628 -0.8244 -0.0602
vn 0.0910 -0.0239 0.9956
vn -0.9389 0.2547 -0.2317
vn -0.0392 0.9951 -0.0906
vn -0.7209 -0.6930 0.0019
vn -0.5981 -0.7995 -0.0560
vn -0.9626 0.2494 -0.1064
vn -0.9875 0.1538 -0.0342
vn -0.6321 -0.7580 -0.1607
vn -0.1962 0.9694 -0.1477
vn -0.2876 0.8915 0.3500
vn -0.4209 -0.2854 0.8610
vn -0.4243 -0.3035 0.8531
vn 0.8451 0.1072 0.5237
vn 0.0931 0.9819 -0.1651
vn 0.0782 0.9909 -0.1098
vn -0.7130 -0.0384 -0.7001
vn -0.7881 0.0310 -0.6147
vn -0.6611 -0.4559 0.5959
vn -0.7308 -0.3349 0.5948
vn -0.1882 0.9471 0.2598
vn -0.1692 0.8454 0.5067
vn -0.1267 0.9885 0.0832
vn -0.3416 -0.4626 0.8181
vn -0.3493 0.4745 0.8080
vn -0.2741 -0.3005 0.9135
vn -0.2255 -0.3529 0.9081
vn -0.3780 -0.4427 0.8131
vn -0.2925 -0.7157 0.6342
vn -0.1340 -0.5954 0.7922
vn -0.3050 -0.7050 0.6403
vn -0.1525 0.2378 0.9593
vn -0.3512 0.5933 0.7244
vn -0.1133 0.9326 0.3428
vn -0.6269 0.5510 0.5508
vn -0.1741 0.9813 0.0822
vn -0.1564 0.9851 0.0715
vn -0.9387 0.1097 -0.3268
vn 0.5083 0.8604 -0.0367
vn 0.0828 0.9643 -0.2516
vn -0.1158 0.9739 -0.1954
vn -0.2372 0.9351 -0.2633
vn -0.3198 0.8733 -0.3674
vn -0.2835 0.8861 -0.3667
vn -0.2291 0.9233 -0.3082
vn -0.2677 0.8295 -0.4901
vn -0.1652 0.8121 -0.5597
vn -0.0861 0.8668 -0.4912
vn -0.0875 0.8650 -0.4941
vn 0.1858 0.1762 0.9667
vn 0.0536 0.8215 -0.5677
vn 0.0659 0.8619 -0.5027
vn 0.1797 0.8037 -0.5672
vn 0.2130 0.9144 -0.3442
vn 0.1805 0.9608 -0.2104
vn 0.1544 0.9752 -0.1587
vn 0.2546 0.9468 -0.1969
vn 0.3799 0.8968 -0.2267
vn 0.5671 0.7971 -0.2073
vn 0.4866 0.8709 -0.0691
vn -0.0562 0.9984 -0.0001
vn 0.5694 0.8090 0.1464
vn 0.5230 0.8207 0.2299
vn 0.3128 0.9277 0.2038
vn 0.3629 0.7946 0.4868
vn 0.3339 0.8197 0.4654
vn 0.4094 0.8500 0.3315
vn 0.5933 -0.1705 0.7867
vn 0.7783 -0.1787 0.6019
vn 0.7094 -0.2240 0.6682
vn 0.7026 -0.2726 0.6573
vn 0.8798 -0.2071 0.4278
vn 0.8852 -0.2193 0.4102
vn 0.8728 -0.2659 0.4093
vn 0.7790 -0.3313 0.5323
vn 0.8640 -0.2789 0.4192
vn 0.6530 -0.7299 0.2022
vn 0.6774 -0.7145 0.1751
vn 0.8921 -0.4029 0.2046
vn 0.6022 -0.7282 0.3272
vn 0.0022 -1.0000 -0.0003
vn 0.0011 -1.0000 0.0001
vn 0.0028 -1.0000 0.0022
vn 0.5655 -0.7400 0.3641
vn 0.0066 -0.9999 0.0108
vn 0.4380 -0.6949 0.5703
vn 0.4557 -0.6859 0.5673
vn 0.5570 -0.7193 0.4153
vn 0.2707 -0.6664 0.6947
vn 0.2821 -0.6760 0.6808
vn 0.3893 -0.3276 0.8609
vn 0.5973 -0.4103 0.6892
vn 0.4119 -0.3059 0.8584
vn 0.5249 -0.3135 0.7913
vn 0.4366 -0.2044 0.8761
vn 0.3308 -0.2125 0.9195
vn 0.3356 -0.2091 0.9185
vn 0.3139 -0.3101 0.8974
vn 0.1770 -0.3049 0.9358
vn 0.2201 -0.2521 0.9424
vn 0.2114 -0.3668 0.9059
vn 0.0344 -0.6883 0.7246
vn 0.0566 -0.6922 0.7195
vn 0.1500 -0.6507 0.7444
vn 0.0660 -0.3454 0.9361
vn 0.0845 -0.3305 0.9400
vn -0.1000 -0.8362 0.5392
vn 0.1847 -0.6980 0.6919
vn -0.0619 -0.3937 0.9171
vn -0.0464 -0.3959 0.9171
vn -0.0561 -0.6931 0.7186
vn -0.1809 -0.7414 0.6463
vn -0.1636 -0.7437 0.6482
vn -0.1549 -0.4472 0.8809
vn -0.3154 -0.4891 0.8132
vn -0.2419 -0.7443 0.6225
vn -0.2984 -0.7546 0.5844
vn -0.4108 -0.7134 0.5677
vn -0.5014 -0.5027 0.7041
vn -0.4342 -0.4720 0.7672
vn -0.3240 -0.6883 0.6491
vn -0.4021 -0.7554 0.5174
vn -0.5343 -0.4902 0.6886
vn -0.6490 -0.5135 0.5613
vn -0.4879 -0.7600 0.4293
vn -0.5065 -0.7583 0.4103
vn -0.6450 -0.5072 0.5716
vn -0.0006 -1.0000 0.0005
vn -0.0007 -1.0000 0.0015
vn -0.3385 -0.8100 0.4788
vn -0.5126 -0.7581 0.4032
vn -0.5118 -0.7716 0.3778
vn -0.5840 -0.7968 0.1551
vn -0.5845 -0.7306 0.3531
vn -0.3077 -0.9116 0.2725
vn -0.6315 -0.7528 0.1858
vn -0.6503 -0.7050 0.2831
vn -0.6855 -0.7203 0.1064
vn -0.7862 -0.5243 0.3272
vn -0.8751 -0.4662 0.1296
vn -0.8488 -0.4823 0.2168
vn -0.7727 -0.4932 -0.3996
vn -0.9107 -0.4099 -0.0509
vn -0.7480 -0.6628 -0.0354
vn -0.4681 -0.8405 -0.2729
vn -0.6264 -0.7795 0.0084
vn -0.9087 -0.3257 -0.2611
vn -0.9075 -0.4139 -0.0719
vn -0.9072 -0.3628 -0.2130
vn -0.6963 -0.7001 -0.1585
vn -0.7031 -0.6972 -0.1397
vn -0.7045 -0.6777 -0.2107
vn -0.8775 -0.3780 -0.2953
vn -0.9204 -0.3259 -0.2160
vn -0.8474 -0.2971 -0.4401
vn -0.8476 -0.2916 -0.4433
vn -0.8535 -0.2668 -0.4477
vn -0.8739 -0.2578 -0.4121
vn -0.3880 0.9027 -0.1862
vn -0.2934 0.9431 -0.1566
vn -0.8201 -0.3525 -0.4507
vn -0.5306 0.7872 -0.3142
vn -0.8377 -0.2277 -0.4964
vn -0.7658 -0.1954 -0.6127
vn -0.5964 0.6549 -0.4642
vn -0.2514 0.9669 -0.0435
vn -0.2922 0.9506 0.1048
vn -0.2036 0.9789 0.0199
vn -0.1574 0.9875 0.0018
vn -0.9299 -0.3490 -0.1162
vn -0.8269 -0.3179 -0.4640
vn -0.1113 -0.9936 -0.0213
vn -0.3398 -0.9363 0.0891
vn 0.0286 -0.9995 -0.0102
vn -0.5495 -0.7753 -0.3112
vn -0.8149 -0.5778 0.0450
vn -0.7919 -0.4833 0.3732
vn -0.8893 -0.3530 0.2907
vn -0.0145 0.9997 0.0215
vn -0.8143 -0.2719 0.5129
vn 0.3066 0.9469 -0.0966
vn 0.0608 0.9962 -0.0618
vn -0.6684 -0.3237 0.6696
vn 0.0493 0.9987 -0.0095
vn -0.7100 -0.3876 0.5879
vn -0.5338 -0.4696 0.7032
vn 0.0470 -0.9974 -0.0544
vn -0.0628 -0.9955 0.0717
vn -0.0135 -0.9980 0.0615
vn -0.1981 -0.6021 0.7735
vn -0.0729 -0.9942 0.0796
vn -0.4951 -0.3098 0.8117
vn -0.0610 0.9965 -0.0565
vn 0.6420 -0.6270 0.4413
vn -0.0142 0.9961 -0.0876
vn -0.0541 -0.3625 0.9304
vn 0.0857 0.9792 -0.1840
vn -0.0286 0.9965 -0.0781
vn 0.2992 -0.2757 0.9135
vn 0.2880 -0.3098 0.9061
vn -0.0340 0.9554 0.2933
vn -0.0299 0.9576 0.2865
vn 0.0857 0.9082 0.4096
vn 0.2253 -0.2643 0.9378
vn -0.0908 -0.2454 0.9652
vn 0.1147 0.9201 0.3745
vn 0.2148 -0.1705 0.9617
vn 0.1281 0.6558 0.7440
vn -0.0748 -0.2086 0.9751
vn 0.2408 0.8012 0.5478
vn 0.2426 0.8051 0.5413
vn 0.1107 0.9908 0.0774
vn 0.4120 0.3216 -0.8526
vn 0.4226 0.3044 -0.8537
vn -0.8828 -0.0942 -0.4602
vn -0.2563 -0.8191 0.5131
vn -0.0066 -0.9941 0.1083
vn -0.8347 -0.1290 -0.5354
vn -0.0061 -0.9865 0.1639
vn 0.1354 -0.9072 0.3982
vn 0.8796 0.2118 0.4259
vn -0.0946 -0.9892 0.1120
vn -0.0759 0.9814 0.1762
vn -0.4329 0.1287 -0.8922
vn 0.9244 0.3062 -0.2274
vn 0.9137 0.3310 -0.2356
vn -0.1087 0.9885 0.1052
vn -0.0069 0.9954 0.0951
vn -0.1225 -0.9907 0.0594
vn -0.0948 -0.9944 0.0459
vn -0.5140 -0.8484 0.1268
vn -0.3372 0.1001 -0.9361
vn -0.0595 -0.9966 0.0563
vn 0.7182 0.3625 -0.5940
vn 0.7796 0.2254 -0.5843
vn 0.3165 0.0668 0.9462
vn 0.5589 -0.0432 0.8281
vn -0.1234 -0.9906 0.0594
vn -0.5547 0.7961 0.2419
vn -0.9145 -0.3063 0.2644
vn -0.3498 0.9074 0.2328
vn -0.3675 0.8732 0.3201
vn -0.4605 -0.6237 0.6316
vn -0.2481 0.9017 0.3540
vn -0.7038 -0.5811 0.4085
vn -0.5536 -0.5330 0.6399
vn -0.3823 0.9213 0.0716
vn -0.9012 -0.4057 0.1524
vn -0.8754 -0.4015 0.2690
vn 0.2637 0.9499 -0.1680
vn 0.0868 0.9837 -0.1575
vn -0.1532 -0.9878 -0.0289
vn 0.4762 -0.0845 0.8753
vn 0.2598 -0.0581 0.9639
vn -0.9076 -0.3501 0.2318
vn -0.9621 -0.2684 -0.0490
vn -0.9699 -0.2292 -0.0821
vn -0.9403 -0.1678 -0.2962
vn -0.9389 -0.0799 -0.3347
vn -0.8225 -0.2270 -0.5215
vn -0.7062 -0.3517 -0.6145
vn -0.7353 -0.2126 -0.6435
vn -0.7595 -0.2610 -0.5958
vn -0.5781 -0.3304 -0.7461
vn -0.6427 -0.1817 -0.7442
vn -0.5822 -0.2045 -0.7869
vn -0.5570 -0.3588 -0.7490
vn -0.4562 -0.3148 -0.8323
vn -0.4778 -0.1886 -0.8580
vn -0.3840 -0.3410 -0.8581
vn -0.3037 -0.2892 -0.9078
vn -0.4580 -0.1789 -0.8708
vn -0.3109 -0.2101 -0.9269
vn -0.1432 -0.1907 -0.9711
vn -0.0528 -0.2200 -0.9741
vn -0.0556 -0.3081 -0.9497
vn -0.2911 -0.2015 -0.9352
vn -0.2337 -0.3471 -0.9083
vn -0.0454 -0.3228 -0.9454
vn -0.0591 -0.7522 -0.6563
vn -0.2021 -0.7171 -0.6670
vn -0.0009 -1.0000 -0.0021
vn -0.0011 -1.0000 -0.0022
vn -0.0005 -1.0000 -0.0049
vn -0.2989 -0.7299 -0.6148
vn -0.0190 -0.7789 -0.6269
vn 0.2414 -0.7660 -0.5958
vn 0.0021 -1.0000 -0.0082
vn 0.2181 -0.7400 -0.6363
vn 0.0527 -0.7572 -0.6510
vn 0.3649 -0.7632 -0.5333
vn 0.5420 -0.3414 -0.7679
vn 0.3205 -0.3890 -0.8637
vn 0.4284 -0.3381 -0.8379
vn 0.5668 -0.2075 -0.7973
vn 0.4793 -0.1859 -0.8577
vn 0.4414 -0.1968 -0.8755
vn 0.5138 -0.3621 -0.7777
vn 0.7411 -0.2158 -0.6358
vn 0.7660 -0.2454 -0.5942
vn 0.6556 -0.1812 -0.7330
vn 0.7230 -0.3059 -0.6195
vn 0.6828 -0.3524 -0.6400
vn 0.4530 -0.7816 -0.4288
vn 0.5480 -0.7666 -0.3346
vn 0.7867 -0.3665 -0.4968
vn 0.8693 -0.3328 -0.3654
vn 0.6043 -0.7598 -0.2396
vn 0.5591 -0.7765 -0.2906
vn 0.8673 -0.3217 -0.3798
vn 0.9611 -0.2073 -0.1826
vn 0.9210 -0.1859 -0.3424
vn 0.8906 -0.2142 -0.4013
vn 0.9210 -0.3415 -0.1875
vn 0.9701 -0.1930 -0.1475
vn 0.9731 -0.2287 0.0275
vn 0.9234 -0.3254 -0.2036
vn 0.9294 -0.3677 0.0304
vn 0.9495 -0.2005 0.2415
vn 0.9600 -0.1843 0.2110
vn 0.9059 -0.3803 0.1860
vn 0.9778 -0.1970 0.0718
vn 0.9608 -0.2737 -0.0441
vn 0.5696 0.8088 0.1464
vn 0.6831 0.7299 0.0255
vn 0.9916 -0.1286 0.0168
vn 0.9627 -0.2158 -0.1632
vn 0.3506 0.9327 -0.0848
vn 0.6205 -0.7743 -0.1243
vn 0.6228 -0.7714 -0.1303
vn 0.6659 -0.7460 -0.0013
vn 0.0040 -1.0000 -0.0018
vn 0.0012 -1.0000 0.0002
vn 0.6524 -0.7561 0.0519
vn 0.0006 -1.0000 0.0020
vn 0.4139 -0.7999 -0.4346
vn 0.0053 -1.0000 -0.0053
vn 0.8437 -0.1924 -0.5011
vn 0.3071 -0.1854 -0.9334
vn 0.2864 -0.3511 -0.8915
vn 0.3185 -0.1919 -0.9283
vn 0.1432 -0.1945 -0.9704
vn 0.1780 -0.3653 -0.9137
vn 0.1160 -0.3152 -0.9419
vn -0.5020 -0.7125 -0.4903
vn -0.4549 -0.6873 -0.5663
vn -0.3095 -0.7248 -0.6155
vn -0.0063 -1.0000 -0.0032
vn -0.6515 -0.6714 -0.3532
vn -0.6027 -0.6671 -0.4379
vn -0.0100 -0.9999 -0.0026
vn -0.0039 -1.0000 0.0009
vn -0.0007 -1.0000 0.0008
vn 0.0736 -0.1706 -0.9826
vn -0.6839 -0.6559 -0.3195
vn -0.6974 -0.7156 -0.0397
vn -0.7064 -0.7075 -0.0215
vn -0.7673 -0.5160 0.3808
vn -0.7210 -0.5307 0.4456
vn -0.0005 -1.0000 0.0039
vn -0.0005 -1.0000 0.0040
vn 0.3367 0.6759 0.6556
vn 0.4230 -0.2115 0.8811
vn 0.5441 -0.1940 0.8163
vn 0.0069 -0.9999 0.0104
vn -0.4897 -0.7670 0.4146
vn -0.1539 -0.9315 0.3296
usemtl Material.002
s off
f 1//1 2//1 3//1
f 1//1 3//1 4//1
f 1//2 5//2 2//2
f 6//3 7//3 8//3
f 9//4 10//4 11//4
f 12//1 13//1 14//1
f 15//1 16//1 2//1
f 5//5 17//5 2//5
f 4//1 3//1 18//1
f 18//1 3//1 19//1
f 17//1 20//1 2//1
f 12//1 14//1 21//1
f 16//1 22//1 2//1
f 2//6 23//6 3//6
f 24//7 25//7 20//7
f 26//8 27//8 28//8
f 20//9 25//9 2//9
f 29//10 30//10 31//10
f 19//1 3//1 32//1
f 33//11 34//11 35//11
f 36//12 37//12 38//12
f 39//13 30//13 29//13
f 2//14 40//14 23//14
f 41//15 35//15 34//15
f 42//16 8//16 7//16
f 22//1 8//1 2//1
f 32//1 3//1 12//1
f 24//17 43//17 25//17
f 19//1 32//1 44//1
f 8//18 42//18 2//18
f 45//19 46//19 47//19
f 48//20 29//20 49//20
f 25//5 15//5 2//5
f 24//21 28//21 43//21
f 12//1 3//1 13//1
f 29//22 50//22 51//22
f 6//23 38//23 52//23
f 44//1 32//1 46//1
f 6//24 52//24 7//24
f 42//25 53//25 2//25
f 46//26 32//26 47//26
f 41//27 54//27 4//27
f 55//28 56//28 57//28
f 4//29 54//29 1//29
f 38//30 37//30 52//30
f 41//31 34//31 54//31
f 58//32 34//32 33//32
f 25//33 43//33 15//33
f 59//34 60//34 61//34
f 62//35 59//35 63//35
f 51//36 55//36 60//36
f 28//37 27//37 64//37
f 61//38 55//38 57//38
f 59//39 61//39 65//39
f 65//40 66//40 67//40
f 61//41 57//41 66//41
f 28//42 64//42 43//42
f 61//43 66//43 65//43
f 27//44 68//44 64//44
f 42//45 7//45 53//45
f 34//46 69//46 54//46
f 70//47 71//47 72//47
f 34//48 58//48 73//48
f 74//49 56//49 50//49
f 71//50 62//50 72//50
f 75//51 35//51 41//51
f 55//52 61//52 60//52
f 34//53 73//53 69//53
f 76//54 60//54 59//54
f 50//55 56//55 55//55
f 7//56 77//56 53//56
f 15//57 43//57 78//57
f 51//58 50//58 55//58
f 59//59 65//59 63//59
f 62//60 63//60 72//60
f 52//61 77//61 7//61
f 71//62 59//62 62//62
f 79//63 38//63 6//63
f 76//64 59//64 71//64
f 54//65 80//65 1//65
f 18//66 75//66 41//66
f 58//67 81//67 73//67
f 82//68 83//68 84//68
f 85//69 86//69 83//69
f 82//70 84//70 2//70
f 87//71 88//71 89//71
f 90//72 88//72 87//72
f 39//73 29//73 48//73
f 15//74 78//74 16//74
f 54//75 69//75 80//75
f 84//76 91//76 92//76
f 37//77 93//77 52//77
f 77//78 52//78 85//78
f 89//79 94//79 23//79
f 68//80 95//80 64//80
f 84//81 92//81 40//81
f 52//82 93//82 85//82
f 96//83 33//83 35//83
f 83//84 97//84 91//84
f 64//85 98//85 43//85
f 53//86 77//86 2//86
f 18//87 41//87 4//87
f 85//88 83//88 82//88
f 91//89 87//89 89//89
f 43//90 98//90 78//90
f 83//91 91//91 84//91
f 88//92 99//92 89//92
f 64//93 95//93 98//93
f 1//94 80//94 5//94
f 80//95 69//95 100//95
f 92//96 89//96 23//96
f 95//97 101//97 98//97
f 94//98 99//98 23//98
f 86//99 85//99 93//99
f 40//100 92//100 23//100
f 73//101 81//101 102//101
f 96//102 35//102 75//102
f 73//103 102//103 69//103
f 103//104 81//104 104//104
f 89//105 99//105 94//105
f 77//106 85//106 82//106
f 67//107 103//107 104//107
f 105//108 49//108 76//108
f 106//109 28//109 24//109
f 107//110 108//110 56//110
f 109//111 103//111 67//111
f 37//112 36//112 108//112
f 2//113 84//113 40//113
f 77//114 82//114 2//114
f 37//115 108//115 107//115
f 91//116 89//116 92//116
f 86//117 97//117 83//117
f 97//118 87//118 91//118
f 110//119 111//119 112//119
f 113//120 110//120 39//120
f 114//121 107//121 56//121
f 110//122 112//122 39//122
f 115//123 116//123 30//123
f 114//124 56//124 74//124
f 66//125 109//125 67//125
f 117//126 70//126 72//126
f 49//127 51//127 60//127
f 30//128 116//128 31//128
f 90//129 87//129 112//129
f 105//130 76//130 11//130
f 97//131 86//131 116//131
f 109//132 26//132 103//132
f 117//133 118//133 70//133
f 119//134 120//134 118//134
f 87//135 115//135 112//135
f 121//136 109//136 66//136
f 119//137 118//137 117//137
f 87//138 97//138 115//138
f 27//139 26//139 109//139
f 116//140 114//140 31//140
f 112//141 30//141 39//141
f 86//142 93//142 114//142
f 93//143 37//143 107//143
f 86//144 114//144 116//144
f 93//145 107//145 114//145
f 121//146 66//146 122//146
f 109//147 121//147 68//147
f 112//148 115//148 30//148
f 33//149 119//149 117//149
f 27//150 109//150 68//150
f 31//151 114//151 74//151
f 57//152 122//152 66//152
f 79//153 36//153 38//153
f 33//154 117//154 58//154
f 68//155 121//155 122//155
f 111//156 90//156 112//156
f 123//157 72//157 63//157
f 115//158 97//158 116//158
f 26//159 28//159 100//159
f 123//160 117//160 72//160
f 12//161 124//161 32//161
f 95//162 68//162 122//162
f 125//163 79//163 6//163
f 58//164 117//164 123//164
f 21//165 126//165 12//165
f 127//166 128//166 129//166
f 130//166 128//166 127//166
f 131//166 128//166 132//166
f 133//166 128//166 131//166
f 134//166 128//166 133//166
f 132//166 128//166 130//166
f 135//166 128//166 134//166
f 136//167 122//167 57//167
f 137//166 128//166 135//166
f 119//168 33//168 96//168
f 138//166 128//166 137//166
f 139//166 128//166 138//166
f 49//169 29//169 51//169
f 136//170 95//170 122//170
f 140//166 128//166 139//166
f 141//166 128//166 140//166
f 104//171 123//171 63//171
f 142//166 128//166 141//166
f 81//172 58//172 123//172
f 128//166 143//166 144//166
f 76//173 49//173 60//173
f 145//166 143//166 128//166
f 108//174 57//174 56//174
f 104//175 63//175 65//175
f 128//166 144//166 146//166
f 147//166 145//166 128//166
f 148//166 128//166 142//166
f 9//176 71//176 70//176
f 149//166 128//166 148//166
f 150//177 128//177 151//177
f 105//178 48//178 49//178
f 136//179 57//179 108//179
f 128//166 146//166 129//166
f 151//166 128//166 149//166
f 67//180 104//180 65//180
f 81//181 123//181 104//181
f 36//182 136//182 108//182
f 9//183 11//183 71//183
f 113//184 39//184 48//184
f 152//185 153//185 154//185
f 44//186 155//186 156//186
f 46//187 157//187 44//187
f 158//188 159//188 160//188
f 153//189 161//189 154//189
f 150//190 162//190 47//190
f 163//191 164//191 165//191
f 165//192 164//192 166//192
f 106//193 24//193 20//193
f 167//194 168//194 161//194
f 44//195 152//195 155//195
f 29//196 74//196 50//196
f 169//197 170//197 3//197
f 150//198 171//198 162//198
f 10//199 172//199 173//199
f 174//200 175//200 176//200
f 177//201 178//201 179//201
f 180//202 153//202 152//202
f 181//203 158//203 160//203
f 182//204 183//204 184//204
f 161//205 158//205 154//205
f 185//206 45//206 47//206
f 163//207 186//207 164//207
f 187//208 188//208 177//208
f 152//209 154//209 189//209
f 190//210 99//210 88//210
f 152//211 189//211 155//211
f 47//212 162//212 185//212
f 191//213 149//213 192//213
f 193//214 174//214 176//214
f 194//215 184//215 190//215
f 180//216 152//216 157//216
f 161//217 168//217 158//217
f 195//218 196//218 167//218
f 179//219 178//219 13//219
f 29//220 31//220 74//220
f 158//221 197//221 159//221
f 44//222 156//222 19//222
f 198//223 195//223 153//223
f 159//224 199//224 200//224
f 201//225 187//225 177//225
f 196//226 193//226 167//226
f 177//227 202//227 178//227
f 171//228 203//228 162//228
f 171//229 191//229 203//229
f 199//230 204//230 201//230
f 190//231 184//231 205//231
f 162//232 203//232 185//232
f 177//233 188//233 202//233
f 153//234 195//234 161//234
f 206//235 194//235 207//235
f 191//236 192//236 195//236
f 167//237 176//237 168//237
f 208//238 186//238 163//238
f 45//239 185//239 180//239
f 157//240 152//240 44//240
f 191//241 198//241 203//241
f 154//242 158//242 181//242
f 168//243 176//243 197//243
f 168//244 197//244 158//244
f 154//245 181//245 189//245
f 189//246 208//246 155//246
f 193//247 176//247 167//247
f 178//248 202//248 209//248
f 189//249 181//249 208//249
f 159//250 197//250 204//250
f 46//251 45//251 180//251
f 10//252 105//252 11//252
f 191//253 195//253 198//253
f 192//254 196//254 195//254
f 11//255 76//255 71//255
f 13//256 178//256 14//256
f 203//257 198//257 153//257
f 195//258 167//258 161//258
f 159//259 204//259 199//259
f 106//260 100//260 28//260
f 206//261 182//261 194//261
f 185//262 203//262 180//262
f 210//263 166//263 211//263
f 204//264 187//264 201//264
f 205//265 179//265 170//265
f 203//266 153//266 180//266
f 46//267 180//267 157//267
f 22//268 6//268 8//268
f 212//269 124//269 213//269
f 48//270 207//270 113//270
f 178//271 209//271 14//271
f 32//272 124//272 214//272
f 111//273 88//273 90//273
f 215//274 165//274 172//274
f 113//275 207//275 110//275
f 124//276 12//276 213//276
f 214//277 124//277 212//277
f 190//278 169//278 99//278
f 216//279 217//279 218//279
f 219//280 220//280 216//280
f 163//281 215//281 118//281
f 182//282 211//282 183//282
f 172//283 210//283 173//283
f 184//284 183//284 221//284
f 184//285 221//285 205//285
f 204//286 222//286 187//286
f 223//287 224//287 225//287
f 216//288 220//288 217//288
f 202//289 226//289 209//289
f 227//290 224//290 228//290
f 172//291 165//291 210//291
f 227//292 229//292 224//292
f 219//293 230//293 220//293
f 220//294 230//294 231//294
f 205//295 169//295 190//295
f 209//296 21//296 14//296
f 232//297 96//297 75//297
f 173//298 233//298 206//298
f 225//299 224//299 234//299
f 215//300 9//300 70//300
f 231//301 217//301 220//301
f 197//302 176//302 204//302
f 176//303 175//303 204//303
f 173//304 210//304 233//304
f 224//305 235//305 234//305
f 120//306 163//306 118//306
f 155//307 119//307 96//307
f 194//308 182//308 184//308
f 110//309 190//309 111//309
f 230//310 236//310 231//310
f 229//311 235//311 224//311
f 229//312 237//312 235//312
f 99//313 3//313 23//313
f 164//314 160//314 166//314
f 230//315 238//315 236//315
f 48//316 105//316 207//316
f 233//317 182//317 206//317
f 190//318 88//318 111//318
f 170//319 179//319 3//319
f 237//320 239//320 235//320
f 205//321 221//321 179//321
f 236//322 240//322 231//322
f 205//323 170//323 169//323
f 166//324 200//324 211//324
f 169//325 3//325 99//325
f 232//326 75//326 18//326
f 102//327 26//327 100//327
f 211//328 201//328 183//328
f 237//329 241//329 239//329
f 235//330 218//330 234//330
f 238//331 242//331 236//331
f 105//332 173//332 207//332
f 239//333 218//333 235//333
f 160//334 200//334 166//334
f 118//335 215//335 70//335
f 236//336 242//336 240//336
f 17//337 106//337 20//337
f 183//338 177//338 221//338
f 222//339 223//339 187//339
f 165//340 166//340 210//340
f 231//341 240//341 243//341
f 241//342 216//342 239//342
f 210//343 211//343 233//343
f 186//344 181//344 164//344
f 163//345 165//345 215//345
f 222//346 244//346 223//346
f 208//347 181//347 186//347
f 215//348 172//348 10//348
f 101//349 36//349 79//349
f 211//350 199//350 201//350
f 240//351 242//351 245//351
f 164//352 181//352 160//352
f 187//353 246//353 188//353
f 187//354 223//354 246//354
f 241//355 247//355 216//355
f 10//356 173//356 105//356
f 239//357 216//357 218//357
f 120//358 208//358 163//358
f 110//359 194//359 190//359
f 223//360 244//360 228//360
f 188//361 246//361 226//361
f 160//362 159//362 200//362
f 211//363 200//363 199//363
f 179//364 13//364 3//364
f 244//365 227//365 228//365
f 247//366 219//366 216//366
f 207//367 173//367 206//367
f 183//368 201//368 177//368
f 246//369 225//369 226//369
f 228//370 224//370 223//370
f 125//371 6//371 22//371
f 223//372 225//372 246//372
f 248//373 225//373 234//373
f 221//374 177//374 179//374
f 249//375 234//375 218//375
f 103//376 26//376 102//376
f 207//377 194//377 110//377
f 21//378 250//378 251//378
f 233//379 211//379 182//379
f 252//380 218//380 217//380
f 253//381 21//381 251//381
f 213//382 12//382 126//382
f 248//383 234//383 249//383
f 226//384 225//384 248//384
f 243//385 252//385 217//385
f 254//386 240//386 245//386
f 215//387 10//387 9//387
f 213//388 126//388 255//388
f 126//389 21//389 253//389
f 251//390 250//390 252//390
f 240//391 254//391 243//391
f 226//392 202//392 188//392
f 254//393 253//393 251//393
f 255//394 253//394 254//394
f 255//395 126//395 253//395
f 256//396 255//396 254//396
f 254//397 251//397 243//397
f 213//398 255//398 256//398
f 250//399 248//399 249//399
f 257//400 258//400 259//400
f 155//401 96//401 232//401
f 256//402 254//402 245//402
f 209//403 248//403 21//403
f 245//404 259//404 256//404
f 242//405 260//405 245//405
f 21//406 248//406 250//406
f 212//407 213//407 256//407
f 238//408 260//408 242//408
f 252//409 250//409 249//409
f 258//410 214//410 212//410
f 259//411 212//411 256//411
f 261//412 257//412 259//412
f 19//413 232//413 18//413
f 260//414 259//414 245//414
f 258//415 212//415 259//415
f 251//416 252//416 243//416
f 260//417 261//417 259//417
f 209//418 226//418 248//418
f 252//419 249//419 218//419
f 243//420 217//420 231//420
f 261//421 260//421 262//421
f 263//422 219//422 264//422
f 101//423 79//423 125//423
f 265//424 266//424 267//424
f 268//425 269//425 131//425
f 270//426 129//426 271//426
f 272//427 175//427 273//427
f 222//428 204//428 175//428
f 36//429 101//429 136//429
f 264//430 269//430 268//430
f 270//431 274//431 129//431
f 214//432 258//432 275//432
f 260//433 276//433 270//433
f 270//434 276//434 274//434
f 277//435 143//435 145//435
f 132//436 268//436 131//436
f 263//437 264//437 268//437
f 135//438 265//438 137//438
f 208//439 120//439 155//439
f 260//440 238//440 276//440
f 277//441 275//441 278//441
f 275//442 258//442 278//442
f 222//443 175//443 272//443
f 237//444 229//444 279//444
f 175//445 174//445 273//445
f 277//446 278//446 143//446
f 280//447 106//447 17//447
f 140//448 273//448 141//448
f 273//449 281//449 141//449
f 282//450 263//450 268//450
f 283//451 265//451 135//451
f 283//452 266//452 265//452
f 155//453 120//453 119//453
f 273//454 174//454 281//454
f 272//455 273//455 140//455
f 141//456 281//456 142//456
f 174//457 193//457 281//457
f 283//458 279//458 266//458
f 193//459 196//459 281//459
f 219//460 263//460 284//460
f 142//461 281//461 148//461
f 285//462 279//462 283//462
f 285//463 237//463 279//463
f 281//464 196//464 148//464
f 100//465 106//465 280//465
f 286//466 222//466 272//466
f 282//467 268//467 132//467
f 278//468 287//468 143//468
f 219//469 284//469 230//469
f 192//470 148//470 196//470
f 258//471 257//471 278//471
f 143//472 287//472 144//472
f 192//473 149//473 148//473
f 149//474 191//474 151//474
f 278//475 257//475 288//475
f 191//476 171//476 151//476
f 289//477 272//477 140//477
f 278//478 288//478 287//478
f 151//479 171//479 150//479
f 16//480 78//480 22//480
f 150//481 47//481 128//481
f 284//482 263//482 282//482
f 290//483 285//483 283//483
f 291//484 237//484 285//484
f 292//485 286//485 272//485
f 287//486 293//486 144//486
f 5//487 280//487 17//487
f 294//488 230//488 284//488
f 292//489 272//489 289//489
f 128//490 47//490 147//490
f 32//491 295//491 47//491
f 130//492 282//492 132//492
f 287//493 288//493 293//493
f 296//494 222//494 286//494
f 288//495 262//495 293//495
f 134//496 283//496 135//496
f 244//497 222//497 296//497
f 144//498 293//498 146//498
f 47//499 297//499 147//499
f 292//500 289//500 139//500
f 293//501 271//501 146//501
f 294//502 284//502 282//502
f 47//503 295//503 297//503
f 257//504 262//504 288//504
f 80//505 280//505 5//505
f 80//506 100//506 280//506
f 290//507 291//507 285//507
f 156//508 155//508 232//508
f 295//509 32//509 214//509
f 139//510 289//510 140//510
f 293//511 262//511 271//511
f 257//512 261//512 262//512
f 295//513 275//513 297//513
f 290//514 283//514 134//514
f 214//515 275//515 295//515
f 292//516 296//516 286//516
f 298//517 291//517 290//517
f 299//518 294//518 282//518
f 300//519 296//519 292//519
f 241//520 237//520 291//520
f 297//521 145//521 147//521
f 98//522 101//522 125//522
f 297//523 277//523 145//523
f 299//524 282//524 130//524
f 262//525 270//525 271//525
f 297//526 275//526 277//526
f 146//527 271//527 129//527
f 262//528 260//528 270//528
f 138//529 292//529 139//529
f 134//530 298//530 290//530
f 265//531 267//531 137//531
f 127//532 299//532 130//532
f 238//533 230//533 301//533
f 301//534 230//534 294//534
f 279//535 302//535 266//535
f 69//536 102//536 100//536
f 301//537 294//537 303//537
f 304//538 241//538 291//538
f 303//539 294//539 299//539
f 279//540 229//540 302//540
f 264//541 305//541 269//541
f 136//542 101//542 95//542
f 98//543 125//543 78//543
f 219//544 247//544 264//544
f 227//545 244//545 296//545
f 304//546 291//546 298//546
f 131//547 269//547 133//547
f 266//548 302//548 267//548
f 303//549 299//549 127//549
f 264//550 247//550 305//550
f 78//551 125//551 22//551
f 229//552 227//552 302//552
f 267//553 306//553 137//553
f 267//554 302//554 300//554
f 267//555 300//555 306//555
f 305//556 298//556 269//556
f 303//557 127//557 274//557
f 296//558 300//558 302//558
f 129//559 274//559 127//559
f 269//560 298//560 133//560
f 238//561 301//561 276//561
f 103//562 102//562 81//562
f 305//563 247//563 304//563
f 300//564 292//564 138//564
f 156//565 232//565 19//565
f 241//566 304//566 247//566
f 274//567 276//567 303//567
f 306//568 138//568 137//568
f 306//569 300//569 138//569
f 305//570 304//570 298//570
f 298//571 134//571 133//571
f 227//572 296//572 302//572
f 276//573 301//573 303//573
usemtl Material.001
f 313//574 307//574 308//574
f 307//575 309//575 308//575
f 310//576 309//576 307//576
f 311//577 310//577 307//577
f 312//578 311//578 307//578
f 312//579 307//579 313//579
f 313//580 314//580 312//580
f 313//581 315//581 314//581
f 313//582 316//582 315//582
f 317//583 316//583 313//583
f 317//584 313//584 319//584
f 319//585 313//585 318//585
f 313//586 308//586 318//586
f 322//587 320//587 319//587
f 320//588 317//588 319//588
f 321//589 319//589 318//589
f 322//590 319//590 321//590
f 322//591 323//591 320//591
f 322//592 324//592 323//592
f 324//593 322//593 321//593
f 325//594 323//594 324//594
f 321//595 326//595 324//595
f 324//596 327//596 325//596
f 324//597 326//597 327//597
f 325//598 327//598 328//598
f 327//599 329//599 328//599
f 327//600 330//600 329//600
f 329//601 330//601 331//601
f 329//602 331//602 332//602
f 332//603 331//603 333//603
f 333//604 331//604 334//604
f 334//605 331//605 335//605
f 336//606 335//606 337//606
f 336//607 334//607 335//607
f 335//608 338//608 337//608
f 338//609 339//609 337//609
f 338//610 340//610 339//610
f 340//611 338//611 341//611
f 341//612 338//612 342//612
f 343//613 342//613 338//613
f 342//614 344//614 341//614
f 344//615 342//615 345//615
f 345//616 346//616 344//616
f 346//617 345//617 347//617
f 345//618 348//618 347//618
f 345//619 349//619 348//619
f 348//620 349//620 350//620
f 350//621 349//621 351//621
f 349//622 352//622 351//622
f 349//623 353//623 352//623
f 353//624 349//624 354//624
f 353//625 354//625 355//625
f 354//626 356//626 355//626
f 354//627 357//627 356//627
f 360//628 357//628 358//628
f 357//629 359//629 358//629
f 360//630 356//630 357//630
f 361//631 360//631 358//631
f 362//632 356//632 360//632
f 360//633 361//633 362//633
f 362//634 361//634 364//634
f 356//635 362//635 355//635
f 355//636 362//636 363//636
f 363//637 362//637 366//637
f 362//638 364//638 365//638
f 362//639 365//639 366//639
f 367//640 366//640 369//640
f 367//641 368//641 366//641
f 363//642 366//642 368//642
f 369//643 366//643 365//643
f 367//644 369//644 370//644
f 369//645 371//645 370//645
f 369//646 372//646 371//646
f 372//647 369//647 365//647
f 372//648 373//648 371//648
f 373//649 372//649 374//649
f 364//650 374//650 372//650
f 364//651 372//651 365//651
f 375//652 373//652 374//652
f 376//653 375//653 374//653
f 378//654 376//654 374//654
f 361//655 374//655 364//655
f 374//656 377//656 378//656
f 374//657 361//657 377//657
f 377//658 379//658 378//658
f 380//659 378//659 379//659
f 381//660 378//660 380//660
f 376//661 378//661 381//661
f 382//662 383//662 381//662
f 382//663 381//663 380//663
f 381//664 383//664 376//664
f 384//665 383//665 385//665
f 384//666 375//666 383//666
f 383//667 375//667 376//667
f 385//668 383//668 386//668
f 383//669 382//669 386//669
f 387//670 309//670 386//670
f 386//671 382//671 387//671
f 309//672 388//672 386//672
f 385//673 386//673 388//673
f 388//674 384//674 385//674
f 384//675 388//675 389//675
f 389//676 388//676 390//676
f 390//677 388//677 309//677
f 391//678 390//678 309//678
f 391//679 389//679 390//679
f 392//680 389//680 391//680
f 392//681 391//681 393//681
f 393//682 391//682 394//682
f 394//683 391//683 309//683
f 309//684 310//684 394//684
f 315//685 394//685 310//685
f 315//686 393//686 394//686
f 395//687 393//687 316//687
f 395//688 396//688 393//688
f 396//689 392//689 393//689
f 393//690 315//690 316//690
f 371//691 396//691 397//691
f 371//692 389//692 396//692
f 392//693 396//693 389//693
f 396//694 398//694 397//694
f 395//695 398//695 396//695
f 397//696 398//696 399//696
f 401//697 398//697 395//697
f 399//698 398//698 400//698
f 398//699 402//699 400//699
f 398//700 401//700 402//700
f 402//701 403//701 400//701
f 401//702 404//702 402//702
f 402//703 406//703 403//703
f 402//704 404//704 405//704
f 402//705 405//705 406//705
f 406//706 407//706 403//706
f 406//707 405//707 407//707
f 408//708 409//708 407//708
f 407//709 405//709 408//709
f 411//710 407//710 409//710
f 403//711 407//711 410//711
f 410//712 407//712 411//712
f 411//713 412//713 399//713
f 399//714 410//714 411//714
f 411//715 413//715 412//715
f 414//716 413//716 411//716
f 411//717 409//717 414//717
f 413//718 414//718 415//718
f 414//719 416//719 415//719
f 414//720 417//720 416//720
f 409//721 417//721 414//721
f 417//722 418//722 334//722
f 417//723 419//723 418//723
f 419//724 417//724 409//724
f 334//725 420//725 417//725
f 417//726 420//726 416//726
f 416//727 420//727 336//727
f 336//728 420//728 334//728
f 419//729 421//729 418//729
f 419//730 422//730 421//730
f 419//731 423//731 422//731
f 419//732 424//732 423//732
f 425//733 424//733 419//733
f 409//734 425//734 419//734
f 408//735 426//735 425//735
f 426//736 427//736 425//736
f 428//737 425//737 427//737
f 408//738 425//738 409//738
f 425//739 428//739 424//739
f 429//740 428//740 427//740
f 424//741 428//741 429//741
f 424//742 429//742 430//742
f 429//743 427//743 430//743
f 433//744 430//744 431//744
f 430//745 432//745 431//745
f 430//746 434//746 432//746
f 424//747 430//747 433//747
f 430//748 427//748 434//748
f 435//749 432//749 434//749
f 434//750 427//750 435//750
f 314//751 436//751 435//751
f 436//752 437//752 435//752
f 437//753 438//753 435//753
f 314//754 435//754 427//754
f 435//755 438//755 432//755
f 311//756 438//756 439//756
f 439//757 438//757 308//757
f 438//758 440//758 308//758
f 437//759 440//759 438//759
f 311//760 432//760 438//760
f 308//761 440//761 441//761
f 382//762 441//762 440//762
f 440//763 437//763 382//763
f 318//764 308//764 441//764
f 318//765 441//765 442//765
f 442//766 441//766 380//766
f 382//767 380//767 441//767
f 321//768 318//768 442//768
f 442//769 380//769 379//769
f 442//770 359//770 443//770
f 359//771 442//771 379//771
f 321//772 442//772 443//772
f 443//773 444//773 321//773
f 443//774 359//774 444//774
f 321//775 444//775 326//775
f 439//776 436//776 311//776
f 439//777 445//777 436//777
f 439//778 308//778 445//778
f 445//779 437//779 436//779
f 387//780 437//780 445//780
f 309//781 445//781 308//781
f 309//782 387//782 445//782
f 387//783 382//783 437//783
f 311//784 436//784 310//784
f 314//785 310//785 436//785
f 317//786 446//786 433//786
f 446//787 447//787 433//787
f 433//788 447//788 426//788
f 433//789 426//789 423//789
f 424//790 433//790 423//790
f 433//791 431//791 317//791
f 448//792 447//792 404//792
f 448//793 427//793 447//793
f 426//794 447//794 427//794
f 446//795 404//795 447//795
f 448//796 314//796 427//796
f 312//797 314//797 448//797
f 312//798 448//798 431//798
f 317//799 431//799 448//799
f 317//800 448//800 316//800
f 316//801 448//801 404//801
f 422//802 446//802 449//802
f 422//803 404//803 446//803
f 446//804 450//804 449//804
f 317//805 450//805 446//805
f 323//806 450//806 320//806
f 450//807 317//807 320//807
f 328//808 449//808 450//808
f 328//809 450//809 323//809
f 422//810 449//810 421//810
f 329//811 421//811 449//811
f 328//812 329//812 449//812
f 432//813 312//813 431//813
f 312//814 432//814 311//814
f 405//815 426//815 408//815
f 422//816 423//816 426//816
f 422//817 426//817 405//817
f 422//818 405//818 404//818
f 329//819 418//819 421//819
f 329//820 332//820 418//820
f 332//821 451//821 418//821
f 332//822 333//822 451//822
f 333//823 334//823 451//823
f 415//824 416//824 452//824
f 452//825 416//825 336//825
f 415//826 452//826 453//826
f 454//827 453//827 452//827
f 452//828 336//828 337//828
f 337//829 454//829 452//829
f 454//830 455//830 453//830
f 454//831 456//831 455//831
f 456//832 454//832 337//832
f 455//833 456//833 457//833
f 458//834 457//834 456//834
f 456//835 337//835 339//835
f 339//836 458//836 456//836
f 458//837 340//837 341//837
f 341//838 459//838 458//838
f 458//839 459//839 460//839
f 458//840 339//840 340//840
f 458//841 460//841 457//841
f 460//842 459//842 461//842
f 461//843 462//843 460//843
f 462//844 457//844 460//844
f 462//845 463//845 464//845
f 462//846 370//846 463//846
f 465//847 370//847 462//847
f 464//848 457//848 462//848
f 465//849 462//849 461//849
f 468//850 466//850 465//850
f 466//851 370//851 465//851
f 465//852 467//852 468//852
f 465//853 461//853 467//853
f 468//854 469//854 466//854
f 471//855 469//855 468//855
f 470//856 468//856 467//856
f 470//857 471//857 468//857
f 472//858 471//858 347//858
f 471//859 346//859 347//859
f 471//860 470//860 346//860
f 471//861 472//861 469//861
f 473//862 472//862 350//862
f 472//863 348//863 350//863
f 348//864 472//864 347//864
f 472//865 473//865 474//865
f 472//866 474//866 469//866
f 474//867 475//867 469//867
f 475//868 474//868 476//868
f 473//869 476//869 474//869
f 479//870 477//870 476//870
f 477//871 478//871 476//871
f 478//872 475//872 476//872
f 473//873 479//873 476//873
f 479//874 352//874 480//874
f 479//875 351//875 352//875
f 351//876 479//876 473//876
f 479//877 480//877 477//877
f 480//878 352//878 481//878
f 483//879 480//879 481//879
f 480//880 482//880 477//880
f 480//881 483//881 482//881
f 483//882 484//882 355//882
f 355//883 363//883 483//883
f 483//884 363//884 368//884
f 484//885 483//885 481//885
f 482//886 483//886 368//886
f 353//887 355//887 484//887
f 353//888 484//888 485//888
f 481//889 485//889 484//889
f 481//890 352//890 485//890
f 352//891 353//891 485//891
f 478//892 477//892 482//892
f 478//893 482//893 486//893
f 486//894 482//894 368//894
f 478//895 486//895 370//895
f 486//896 367//896 370//896
f 368//897 367//897 486//897
f 475//898 478//898 370//898
f 469//899 475//899 466//899
f 475//900 370//900 466//900
f 473//901 350//901 351//901
f 346//902 470//902 487//902
f 487//903 470//903 467//903
f 346//904 487//904 344//904
f 344//905 487//905 459//905
f 459//906 487//906 461//906
f 461//907 487//907 467//907
f 464//846 463//846 488//846
f 488//908 453//908 464//908
f 464//909 453//909 455//909
f 457//910 464//910 455//910
f 463//911 412//911 488//911
f 415//912 488//912 412//912
f 488//913 415//913 453//913
f 463//914 399//914 412//914
f 463//915 397//915 399//915
f 463//916 371//916 397//916
f 459//917 341//917 344//917
f 412//918 413//918 415//918
f 400//919 403//919 410//919
f 410//920 399//920 400//920
f 316//921 404//921 401//921
f 395//922 316//922 401//922
f 371//923 384//923 389//923
f 371//924 375//924 384//924
f 379//925 358//925 359//925
f 379//926 377//926 358//926
f 377//927 361//927 358//927
f 371//928 373//928 375//928
f 325//929 328//929 323//929
f 314//930 315//930 310//930
