# Blender MTL File: 'None'
# Material Count: 1

newmtl Material.017
Ns 504.620905
Ka 1.000000 1.000000 1.000000
Kd 1.000000 1.000000 1.000000
Ks 0.478261 0.478261 0.478261
Ke 0.000000 0.000000 0.000000
Ni 1.450000
d 1.000000
illum 3
